<?xml version="1.0" encoding="UTF-8" standalone="no"?>
<!-- Created with Inkscape (http://www.inkscape.org/) -->

<svg
   xmlns:dc="http://purl.org/dc/elements/1.1/"
   xmlns:cc="http://creativecommons.org/ns#"
   xmlns:rdf="http://www.w3.org/1999/02/22-rdf-syntax-ns#"
   xmlns:svg="http://www.w3.org/2000/svg"
   xmlns="http://www.w3.org/2000/svg"
   xmlns:sodipodi="http://sodipodi.sourceforge.net/DTD/sodipodi-0.dtd"
   xmlns:inkscape="http://www.inkscape.org/namespaces/inkscape"
   width="199.39166"
   height="59.422646"
   viewBox="0 0 52.755709 15.722242"
   version="1.1"
   id="svg8"
   inkscape:version="0.92.1 r15371"
   sodipodi:docname="logo.svg"
   inkscape:export-filename="/home/tereseta/Escritorio/cabeceraALSUR.png"
   inkscape:export-xdpi="300"
   inkscape:export-ydpi="300">
  <defs
     id="defs2">
    <clipPath
       clipPathUnits="userSpaceOnUse"
       id="clipPath48">
      <path
         d="M 40,50.08 H 1240 V 749.921 H 40 Z"
         id="path46"
         inkscape:connector-curvature="0" />
    </clipPath>
    <clipPath
       clipPathUnits="userSpaceOnUse"
       id="clipPath24">
      <path
         d="M 0,0 H 1280 V 800 H 0 Z"
         id="path22"
         inkscape:connector-curvature="0" />
    </clipPath>
    <clipPath
       clipPathUnits="userSpaceOnUse"
       id="clipPath24-3">
      <path
         d="M 0,0 H 1280 V 800 H 0 Z"
         id="path22-6"
         inkscape:connector-curvature="0" />
    </clipPath>
    <clipPath
       clipPathUnits="userSpaceOnUse"
       id="clipPath2326">
      <path
         d="M 0,0 H 1280 V 800 H 0 Z"
         id="path2324"
         inkscape:connector-curvature="0" />
    </clipPath>
  </defs>
  <sodipodi:namedview
     id="base"
     pagecolor="#ffffff"
     bordercolor="#666666"
     borderopacity="1.0"
     inkscape:pageopacity="0.0"
     inkscape:pageshadow="2"
     inkscape:zoom="0.24748738"
     inkscape:cx="836.50566"
     inkscape:cy="-621.52879"
     inkscape:document-units="mm"
     inkscape:current-layer="layer1"
     showgrid="false"
     units="px"
     inkscape:window-width="1680"
     inkscape:window-height="986"
     inkscape:window-x="0"
     inkscape:window-y="27"
     inkscape:window-maximized="1"
     fit-margin-top="0"
     fit-margin-left="0"
     fit-margin-right="0"
     fit-margin-bottom="0" />
  <metadata
     id="metadata5">
    <rdf:RDF>
      <cc:Work
         rdf:about="">
        <dc:format>image/svg+xml</dc:format>
        <dc:type
           rdf:resource="http://purl.org/dc/dcmitype/StillImage" />
        <dc:title></dc:title>
      </cc:Work>
    </rdf:RDF>
  </metadata>
  <g
     inkscape:label="Capa 1"
     inkscape:groupmode="layer"
     id="layer1"
     transform="translate(-103.71298,-396.79012)">
    <g
       id="g3774"
       transform="matrix(-0.25158003,0,0,0.25158003,37.494796,-32.745041)" />
    <g
       id="g5266"
       transform="matrix(-0.25158003,0,0,0.25158003,158.90463,-32.745041)" />
    <g
       id="g6578"
       transform="matrix(-0.25158003,0,0,0.25158003,83.39366,-32.637365)" />
    <g
       id="g7174"
       transform="matrix(-0.25158003,0,0,0.25158003,8.1163114,-32.745041)" />
    <g
       id="g8350"
       transform="matrix(-0.25158003,0,0,0.25158003,-67.394906,-32.637365)" />
    <g
       transform="matrix(0.18592494,0,0,-0.18592494,-67.872991,427.71142)"
       id="g13480-7">
      <path
         inkscape:connector-curvature="0"
         id="path12-5"
         style="fill:#031f5c;fill-opacity:1;fill-rule:nonzero;stroke:none"
         d="m 1197.68,130.555 h 8.945 v 8.945 h -8.945 z" />
      <g
         transform="translate(1045.8484,107.6999)"
         id="g14-3">
        <path
           inkscape:connector-curvature="0"
           id="path16-5"
           style="fill:#031f5c;fill-opacity:1;fill-rule:nonzero;stroke:none"
           d="m 0,0 h -24.875 l -4.734,-13.079 h -7.864 l 20.943,55.527 h 8.265 L 12.599,-13.079 H 4.735 Z M -2.086,5.698 -12.438,34.264 -22.789,5.698 Z" />
      </g>
      <g
         id="g18-6">
        <g
           clip-path="url(#clipPath24-3)"
           id="g20-2">
          <g
             transform="translate(1117.6652,102.1232)"
             id="g26-9">
            <path
               inkscape:connector-curvature="0"
               id="path28-1"
               style="fill:#031f5c;fill-opacity:1;fill-rule:nonzero;stroke:none"
               d="m 0,0 c -1.445,-2.435 -3.585,-4.387 -6.42,-5.858 -2.836,-1.472 -6.286,-2.206 -10.351,-2.206 -4.013,0 -7.597,0.682 -10.753,2.046 -3.156,1.364 -5.685,3.33 -7.582,5.898 -1.9,2.567 -2.983,5.563 -3.25,8.987 h 12.036 c 0.267,-2.301 1.19,-4.213 2.769,-5.737 1.576,-1.525 3.677,-2.287 6.298,-2.287 2.354,0 4.159,0.628 5.417,1.885 1.256,1.257 1.886,2.875 1.886,4.855 0,1.765 -0.509,3.222 -1.525,4.373 -1.017,1.15 -2.301,2.073 -3.852,2.769 -1.552,0.694 -3.691,1.496 -6.419,2.407 -3.531,1.176 -6.42,2.339 -8.667,3.49 -2.246,1.15 -4.159,2.821 -5.737,5.016 -1.578,2.192 -2.367,5.055 -2.367,8.586 0,4.867 1.752,8.706 5.256,11.514 3.503,2.809 8.144,4.213 13.922,4.213 5.991,0 10.765,-1.444 14.323,-4.333 3.558,-2.889 5.577,-6.74 6.058,-11.555 h -12.196 c -0.321,2.032 -1.177,3.704 -2.568,5.015 -1.391,1.311 -3.29,1.966 -5.697,1.966 -2.086,0 -3.772,-0.549 -5.055,-1.645 -1.285,-1.097 -1.927,-2.688 -1.927,-4.774 0,-1.659 0.495,-3.037 1.485,-4.133 0.99,-1.097 2.247,-1.993 3.772,-2.688 1.524,-0.696 3.597,-1.472 6.219,-2.327 3.637,-1.284 6.592,-2.487 8.867,-3.611 2.272,-1.123 4.212,-2.808 5.817,-5.055 C 1.364,14.564 2.166,11.621 2.166,7.984 2.166,5.095 1.444,2.434 0,0" />
          </g>
          <g
             transform="translate(1169.0989,139.075)"
             id="g30-2">
            <path
               inkscape:connector-curvature="0"
               id="path32-7"
               style="fill:#031f5c;fill-opacity:1;fill-rule:nonzero;stroke:none"
               d="m 0,0 v -44.455 h -11.314 v 8.988 c -1.177,-2.997 -3.117,-5.336 -5.817,-7.022 -2.703,-1.685 -5.818,-2.527 -9.349,-2.527 -5.135,0 -9.228,1.685 -12.277,5.055 -3.049,3.37 -4.574,8.077 -4.574,14.123 V 0 h 11.234 v -24.555 c 0,-3.53 0.909,-6.272 2.728,-8.224 1.818,-1.954 4.279,-2.929 7.383,-2.929 3.262,0 5.858,1.043 7.783,3.129 1.926,2.087 2.889,5.082 2.889,8.987 V 0 Z" />
          </g>
        </g>
      </g>
      <g
         transform="translate(1197.7273,121.1563)"
         id="g34-0">
        <path
           inkscape:connector-curvature="0"
           id="path36-9"
           style="fill:#031f5c;fill-opacity:1;fill-rule:nonzero;stroke:none"
           d="m 0,0 h -11.433 v -26.536 h -11.434 v 44.427 h 11.434 V 8.945 H 0" />
      </g>
      <g
         transform="translate(1065.5696,154)"
         id="g38-3">
        <path
           inkscape:connector-curvature="0"
           id="path40-6"
           style="fill:#031f5c;fill-opacity:1;fill-rule:nonzero;stroke:none"
           d="m 0,0 h -1.346 -7.293 v -7.293 h 7.293 V -59.38 H 5.956 V 0 Z" />
      </g>
    </g>
    <g
       transform="matrix(0.03178506,0,0,-0.03178506,78.205482,417.27737)"
       id="g2320">
      <g
         id="g2322"
         clip-path="url(#clipPath2326)">
        <g
           id="g2328"
           transform="translate(970.6506,202.832)">
          <path
             d="m 0,0 h -17.588 c -4.871,0 -8.819,-3.949 -8.819,-8.82 0,-4.871 3.948,-8.819 8.819,-8.819 H 0 Z"
             style="fill:#fcc7d6;fill-opacity:1;fill-rule:nonzero;stroke:none"
             id="path2330"
             inkscape:connector-curvature="0" />
        </g>
        <g
           id="g2332"
           transform="translate(1005.9292,167.5532)">
          <path
             d="m 0,0 h -35.402 c -4.871,0 -8.819,-3.949 -8.819,-8.82 0,-4.871 3.948,-8.819 8.819,-8.819 H 0 Z"
             style="fill:#031f5c;fill-opacity:1;fill-rule:nonzero;stroke:none"
             id="path2334"
             inkscape:connector-curvature="0" />
        </g>
        <g
           id="g2336"
           transform="translate(970.6504,414.7509)">
          <path
             d="m 0,0 v 0 c -4.871,0 -8.82,-3.949 -8.82,-8.82 0,-4.871 3.949,-8.819 8.82,-8.819 H 35.525 V 0 Z"
             style="fill:#031f5c;fill-opacity:1;fill-rule:nonzero;stroke:none"
             id="path2338"
             inkscape:connector-curvature="0" />
        </g>
        <g
           id="g2340"
           transform="translate(1014.749,405.9312)">
          <path
             d="m 0,0 c 0,-4.871 -3.949,-8.82 -8.82,-8.82 -4.871,0 -8.819,3.949 -8.819,8.82 0,4.871 3.948,8.82 8.819,8.82 C -3.949,8.82 0,4.871 0,0"
             style="fill:#fcc7d6;fill-opacity:1;fill-rule:nonzero;stroke:none"
             id="path2342"
             inkscape:connector-curvature="0" />
        </g>
        <g
           id="g2344"
           transform="translate(864.6909,379.4721)">
          <path
             d="m 0,0 c 4.871,0 8.82,-3.949 8.82,-8.82 0,-4.871 -3.949,-8.819 -8.82,-8.819 -4.871,0 -8.82,3.948 -8.82,8.819 C -8.82,-3.949 -4.871,0 0,0"
             style="fill:#fcc7d6;fill-opacity:1;fill-rule:nonzero;stroke:none"
             id="path2346"
             inkscape:connector-curvature="0" />
        </g>
        <g
           id="g2348"
           transform="translate(847.0518,379.4721)">
          <path
             d="m 0,0 c 4.871,0 8.82,-3.949 8.82,-8.82 0,-4.871 -3.949,-8.819 -8.82,-8.819 -4.871,0 -8.82,3.948 -8.82,8.819 C -8.82,-3.949 -4.871,0 0,0"
             style="fill:#031f5c;fill-opacity:1;fill-rule:nonzero;stroke:none"
             id="path2350"
             inkscape:connector-curvature="0" />
        </g>
        <g
           id="g2352"
           transform="translate(847.0518,397.1115)">
          <path
             d="m 0,0 v 0 c -4.871,0 -8.82,3.949 -8.82,8.82 0,4.871 3.949,8.819 8.82,8.819 H 17.639 V 0 Z"
             style="fill:#fcc7d6;fill-opacity:1;fill-rule:nonzero;stroke:none"
             id="path2354"
             inkscape:connector-curvature="0" />
        </g>
        <g
           id="g2356"
           transform="translate(873.5107,405.9312)">
          <path
             d="m 0,0 c 0,4.871 -3.949,8.82 -8.82,8.82 -4.871,0 -8.819,-3.949 -8.819,-8.82 0,-4.871 3.948,-8.82 8.819,-8.82 C -3.949,-8.82 0,-4.871 0,0"
             style="fill:#fa384f;fill-opacity:1;fill-rule:nonzero;stroke:none"
             id="path2358"
             inkscape:connector-curvature="0" />
        </g>
        <g
           id="g2360"
           transform="translate(864.6912,379.4721)">
          <path
             d="m 0,0 v 0 c 4.871,0 8.82,3.949 8.82,8.82 0,4.871 -3.949,8.819 -8.82,8.819 H -17.639 V 0 Z"
             style="fill:#031f5c;fill-opacity:1;fill-rule:nonzero;stroke:none"
             id="path2362"
             inkscape:connector-curvature="0" />
        </g>
        <g
           id="g2364"
           transform="translate(838.2319,388.2918)">
          <path
             d="m 0,0 c 0,4.871 3.949,8.82 8.82,8.82 4.871,0 8.819,-3.949 8.819,-8.82 0,-4.871 -3.948,-8.82 -8.819,-8.82 C 3.949,-8.82 0,-4.871 0,0"
             style="fill:#fa384f;fill-opacity:1;fill-rule:nonzero;stroke:none"
             id="path2366"
             inkscape:connector-curvature="0" />
        </g>
        <g
           id="g2368"
           transform="translate(829.4121,414.7509)">
          <path
             d="m 0,0 c -4.871,0 -8.82,-3.949 -8.82,-8.82 0,-4.871 3.949,-8.819 8.82,-8.819 4.871,0 8.82,3.948 8.82,8.819 C 8.82,-3.949 4.871,0 0,0"
             style="fill:#fa384f;fill-opacity:1;fill-rule:nonzero;stroke:none"
             id="path2370"
             inkscape:connector-curvature="0" />
        </g>
        <g
           id="g2372"
           transform="translate(811.7727,397.1115)">
          <path
             d="m 0,0 c -4.871,0 -8.82,3.949 -8.82,8.82 0,4.871 3.949,8.819 8.82,8.819 4.871,0 8.82,-3.948 8.82,-8.819 C 8.82,3.949 4.871,0 0,0"
             style="fill:#fcc7d6;fill-opacity:1;fill-rule:nonzero;stroke:none"
             id="path2374"
             inkscape:connector-curvature="0" />
        </g>
        <g
           id="g2376"
           transform="translate(979.5935,194.0122)">
          <path
             d="m 0,0 c 0,4.871 -3.949,8.82 -8.82,8.82 -4.871,0 -8.82,-3.949 -8.82,-8.82 0,-4.871 3.949,-8.82 8.82,-8.82 C -3.949,-8.82 0,-4.871 0,0"
             style="fill:#0338d6;fill-opacity:1;fill-rule:nonzero;stroke:none"
             id="path2378"
             inkscape:connector-curvature="0" />
        </g>
        <g
           id="g2380"
           transform="translate(979.5935,176.3729)">
          <path
             d="m 0,0 c 0,4.871 -3.949,8.82 -8.82,8.82 -4.871,0 -8.82,-3.949 -8.82,-8.82 0,-4.871 3.949,-8.82 8.82,-8.82 C -3.949,-8.82 0,-4.871 0,0"
             style="fill:#031f5c;fill-opacity:1;fill-rule:nonzero;stroke:none"
             id="path2382"
             inkscape:connector-curvature="0" />
        </g>
        <g
           id="g2384"
           transform="translate(997.2327,176.3729)">
          <path
             d="m 0,0 v 0 c 0,-4.871 3.949,-8.82 8.82,-8.82 4.871,0 8.819,3.949 8.819,8.82 V 17.639 H 0 Z"
             style="fill:#fcc7d6;fill-opacity:1;fill-rule:nonzero;stroke:none"
             id="path2386"
             inkscape:connector-curvature="0" />
        </g>
        <g
           id="g2388"
           transform="translate(1006.0525,202.832)">
          <path
             d="m 0,0 c 4.871,0 8.82,-3.949 8.82,-8.82 0,-4.871 -3.949,-8.819 -8.82,-8.819 -4.871,0 -8.82,3.948 -8.82,8.819 C -8.82,-3.949 -4.871,0 0,0"
             style="fill:#fa384f;fill-opacity:1;fill-rule:nonzero;stroke:none"
             id="path2390"
             inkscape:connector-curvature="0" />
        </g>
        <g
           id="g2392"
           transform="translate(979.5935,194.0124)">
          <path
             d="m 0,0 v 0 c 0,4.871 3.948,8.82 8.82,8.82 4.871,0 8.819,-3.949 8.819,-8.82 V -17.639 H 0 Z"
             style="fill:#031f5c;fill-opacity:1;fill-rule:nonzero;stroke:none"
             id="path2394"
             inkscape:connector-curvature="0" />
        </g>
        <g
           id="g2396"
           transform="translate(988.4131,167.5532)">
          <path
             d="m 0,0 c 4.871,0 8.82,3.949 8.82,8.82 0,4.871 -3.949,8.819 -8.82,8.819 -4.871,0 -8.82,-3.948 -8.82,-8.819 C -8.82,3.949 -4.871,0 0,0"
             style="fill:#fa384f;fill-opacity:1;fill-rule:nonzero;stroke:none"
             id="path2398"
             inkscape:connector-curvature="0" />
        </g>
        <g
           id="g2400"
           transform="translate(1014.8721,158.7334)">
          <path
             d="m 0,0 c 0,-4.871 -3.949,-8.82 -8.82,-8.82 -4.871,0 -8.819,3.949 -8.819,8.82 0,4.871 3.948,8.82 8.819,8.82 C -3.949,8.82 0,4.871 0,0"
             style="fill:#fa384f;fill-opacity:1;fill-rule:nonzero;stroke:none"
             id="path2402"
             inkscape:connector-curvature="0" />
        </g>
        <g
           id="g2404"
           transform="translate(944.0686,388.2919)">
          <path
             d="m 0,0 v 0 c 0,4.871 3.948,8.82 8.82,8.82 4.87,0 8.819,-3.949 8.819,-8.82 V -70.907 H 0 Z"
             style="fill:#fa384f;fill-opacity:1;fill-rule:nonzero;stroke:none"
             id="path2406"
             inkscape:connector-curvature="0" />
        </g>
        <g
           id="g2408"
           transform="translate(908.7896,388.2919)">
          <path
             d="m 0,0 v 0 c 0,4.871 -3.949,8.82 -8.82,8.82 -4.871,0 -8.819,-3.949 -8.819,-8.82 V -35.525 H 0 Z"
             style="fill:#031f5c;fill-opacity:1;fill-rule:nonzero;stroke:none"
             id="path2410"
             inkscape:connector-curvature="0" />
        </g>
        <g
           id="g2412"
           transform="translate(899.97,344.1934)">
          <path
             d="m 0,0 c -4.871,0 -8.82,3.949 -8.82,8.82 0,4.871 3.949,8.819 8.82,8.819 4.871,0 8.82,-3.948 8.82,-8.819 C 8.82,3.949 4.871,0 0,0"
             style="fill:#fcc7d6;fill-opacity:1;fill-rule:nonzero;stroke:none"
             id="path2414"
             inkscape:connector-curvature="0" />
        </g>
        <g
           id="g2416"
           transform="translate(935.2488,343.9471)">
          <path
             d="m 0,0 v 0 c 4.871,0 8.82,3.949 8.82,8.82 0,4.871 -3.949,8.819 -8.82,8.819 H -17.64 V 0 Z"
             style="fill:#031f5c;fill-opacity:1;fill-rule:nonzero;stroke:none"
             id="path2418"
             inkscape:connector-curvature="0" />
        </g>
        <g
           id="g2420"
           transform="translate(908.7896,352.7668)">
          <path
             d="m 0,0 c 0,4.871 3.949,8.82 8.82,8.82 4.871,0 8.819,-3.949 8.819,-8.82 0,-4.871 -3.948,-8.82 -8.819,-8.82 C 3.949,-8.82 0,-4.871 0,0"
             style="fill:#0338d6;fill-opacity:1;fill-rule:nonzero;stroke:none"
             id="path2422"
             inkscape:connector-curvature="0" />
        </g>
        <g
           id="g2424"
           transform="translate(952.8882,326.3077)">
          <path
             d="m 0,0 c 4.871,0 8.82,-3.949 8.82,-8.82 0,-4.871 -3.949,-8.819 -8.82,-8.819 -4.871,0 -8.82,3.948 -8.82,8.819 C -8.82,-3.949 -4.871,0 0,0"
             style="fill:#fcc7d6;fill-opacity:1;fill-rule:nonzero;stroke:none"
             id="path2426"
             inkscape:connector-curvature="0" />
        </g>
        <g
           id="g2428"
           transform="translate(926.429,370.6523)">
          <path
             d="m 0,0 v 0 c 0,-4.871 3.949,-8.82 8.82,-8.82 4.871,0 8.82,3.949 8.82,8.82 V 17.639 H 0 Z"
             style="fill:#031f5c;fill-opacity:1;fill-rule:nonzero;stroke:none"
             id="path2430"
             inkscape:connector-curvature="0" />
        </g>
        <g
           id="g2432"
           transform="translate(935.2488,397.1115)">
          <path
             d="m 0,0 c 4.871,0 8.82,-3.949 8.82,-8.82 0,-4.871 -3.949,-8.819 -8.82,-8.819 -4.871,0 -8.82,3.948 -8.82,8.819 C -8.82,-3.949 -4.871,0 0,0"
             style="fill:#fcc7d6;fill-opacity:1;fill-rule:nonzero;stroke:none"
             id="path2434"
             inkscape:connector-curvature="0" />
        </g>
        <g
           id="g2436"
           transform="translate(908.7896,370.6523)">
          <path
             d="m 0,0 v 0 c 0,-4.871 3.949,-8.82 8.82,-8.82 4.871,0 8.819,3.949 8.819,8.82 V 17.639 H 0 Z"
             style="fill:#fcc7d6;fill-opacity:1;fill-rule:nonzero;stroke:none"
             id="path2438"
             inkscape:connector-curvature="0" />
        </g>
        <g
           id="g2440"
           transform="translate(917.6094,397.1115)">
          <path
             d="m 0,0 c 4.871,0 8.82,-3.949 8.82,-8.82 0,-4.871 -3.949,-8.819 -8.82,-8.819 -4.871,0 -8.82,3.948 -8.82,8.819 C -8.82,-3.949 -4.871,0 0,0"
             style="fill:#fa384f;fill-opacity:1;fill-rule:nonzero;stroke:none"
             id="path2442"
             inkscape:connector-curvature="0" />
        </g>
        <g
           id="g2444"
           transform="translate(891.1501,388.0457)">
          <path
             d="m 0,0 v 0 c 0,4.871 -3.949,8.82 -8.82,8.82 -4.871,0 -8.819,-3.949 -8.819,-8.82 V -17.639 H 0 Z"
             style="fill:#fcc7d6;fill-opacity:1;fill-rule:nonzero;stroke:none"
             id="path2446"
             inkscape:connector-curvature="0" />
        </g>
        <g
           id="g2448"
           transform="translate(882.3303,361.5865)">
          <path
             d="m 0,0 c -4.871,0 -8.82,3.949 -8.82,8.82 0,4.871 3.949,8.819 8.82,8.819 4.871,0 8.82,-3.948 8.82,-8.819 C 8.82,3.949 4.871,0 0,0"
             style="fill:#fa384f;fill-opacity:1;fill-rule:nonzero;stroke:none"
             id="path2450"
             inkscape:connector-curvature="0" />
        </g>
        <g
           id="g2452"
           transform="translate(882.3303,361.5865)">
          <path
             d="m 0,0 c 4.871,0 8.82,-3.949 8.82,-8.82 0,-4.871 -3.949,-8.819 -8.82,-8.819 -4.871,0 -8.82,3.948 -8.82,8.819 C -8.82,-3.949 -4.871,0 0,0"
             style="fill:#031f5c;fill-opacity:1;fill-rule:nonzero;stroke:none"
             id="path2454"
             inkscape:connector-curvature="0" />
        </g>
        <g
           id="g2456"
           transform="translate(952.8882,414.7509)">
          <path
             d="m 0,0 v 0 c 4.871,0 8.82,-3.949 8.82,-8.82 0,-4.871 -3.949,-8.819 -8.82,-8.819 H -70.907 V 0 Z"
             style="fill:#031f5c;fill-opacity:1;fill-rule:nonzero;stroke:none"
             id="path2458"
             inkscape:connector-curvature="0" />
        </g>
        <g
           id="g2460"
           transform="translate(873.5107,405.9312)">
          <path
             d="m 0,0 c 0,-4.871 3.949,-8.82 8.82,-8.82 4.871,0 8.819,3.949 8.819,8.82 0,4.871 -3.948,8.82 -8.819,8.82 C 3.949,8.82 0,4.871 0,0"
             style="fill:#fa384f;fill-opacity:1;fill-rule:nonzero;stroke:none"
             id="path2462"
             inkscape:connector-curvature="0" />
        </g>
        <g
           id="g2464"
           transform="translate(908.7896,335.1275)">
          <path
             d="m 0,0 v 0 c 0,4.871 3.949,8.82 8.82,8.82 4.871,0 8.819,-3.949 8.819,-8.82 V -70.907 H 0 Z"
             style="fill:#031f5c;fill-opacity:1;fill-rule:nonzero;stroke:none"
             id="path2466"
             inkscape:connector-curvature="0" />
        </g>
        <g
           id="g2468"
           transform="translate(944.0684,335.1274)">
          <path
             d="m 0,0 v 0 c 0,4.871 -3.948,8.82 -8.82,8.82 -4.871,0 -8.819,-3.949 -8.819,-8.82 V -17.639 H 0 Z"
             style="fill:#fcc7d6;fill-opacity:1;fill-rule:nonzero;stroke:none"
             id="path2470"
             inkscape:connector-curvature="0" />
        </g>
        <g
           id="g2472"
           transform="translate(935.2488,308.6683)">
          <path
             d="m 0,0 c -4.871,0 -8.82,3.949 -8.82,8.82 0,4.871 3.949,8.819 8.82,8.819 4.871,0 8.82,-3.948 8.82,-8.819 C 8.82,3.949 4.871,0 0,0"
             style="fill:#031f5c;fill-opacity:1;fill-rule:nonzero;stroke:none"
             id="path2474"
             inkscape:connector-curvature="0" />
        </g>
        <g
           id="g2476"
           transform="translate(935.2488,273.3895)">
          <path
             d="m 0,0 v 0 c -4.871,0 -8.82,3.949 -8.82,8.82 0,4.871 3.949,8.819 8.82,8.819 H 17.639 V 0 Z"
             style="fill:#fa384f;fill-opacity:1;fill-rule:nonzero;stroke:none"
             id="path2478"
             inkscape:connector-curvature="0" />
        </g>
        <g
           id="g2480"
           transform="translate(961.7078,282.2092)">
          <path
             d="m 0,0 c 0,4.871 -3.949,8.82 -8.82,8.82 -4.871,0 -8.819,-3.949 -8.819,-8.82 0,-4.871 3.948,-8.82 8.819,-8.82 C -3.949,-8.82 0,-4.871 0,0"
             style="fill:#fcc7d6;fill-opacity:1;fill-rule:nonzero;stroke:none"
             id="path2482"
             inkscape:connector-curvature="0" />
        </g>
        <g
           id="g2484"
           transform="translate(935.2488,273.3895)">
          <path
             d="m 0,0 c 4.871,0 8.82,-3.949 8.82,-8.82 0,-4.871 -3.949,-8.819 -8.82,-8.819 -4.871,0 -8.82,3.948 -8.82,8.819 C -8.82,-3.949 -4.871,0 0,0"
             style="fill:#fcc7d6;fill-opacity:1;fill-rule:nonzero;stroke:none"
             id="path2486"
             inkscape:connector-curvature="0" />
        </g>
        <g
           id="g2488"
           transform="translate(935.2488,308.6683)">
          <path
             d="m 0,0 c -4.871,0 -8.82,-3.949 -8.82,-8.82 0,-4.871 3.949,-8.819 8.82,-8.819 4.871,0 8.82,3.948 8.82,8.819 C 8.82,-3.949 4.871,0 0,0"
             style="fill:#fcc7d6;fill-opacity:1;fill-rule:nonzero;stroke:none"
             id="path2490"
             inkscape:connector-curvature="0" />
        </g>
        <g
           id="g2492"
           transform="translate(952.8882,291.0289)">
          <path
             d="m 0,0 c -4.871,0 -8.82,3.949 -8.82,8.82 0,4.871 3.949,8.819 8.82,8.819 4.871,0 8.82,-3.948 8.82,-8.819 C 8.82,3.949 4.871,0 0,0"
             style="fill:#fcc7d6;fill-opacity:1;fill-rule:nonzero;stroke:none"
             id="path2494"
             inkscape:connector-curvature="0" />
        </g>
        <g
           id="g2496"
           transform="translate(944.1917,246.9304)">
          <path
             d="m 0,0 c 0,4.871 3.948,8.82 8.82,8.82 4.871,0 8.819,-3.949 8.819,-8.82 0,-4.871 -3.948,-8.82 -8.819,-8.82 C 3.948,-8.82 0,-4.871 0,0"
             style="fill:#031f5c;fill-opacity:1;fill-rule:nonzero;stroke:none"
             id="path2498"
             inkscape:connector-curvature="0" />
        </g>
        <g
           id="g2500"
           transform="translate(935.3718,202.8319)">
          <path
             d="m 0,0 v 0 c -4.871,0 -8.82,3.949 -8.82,8.82 0,4.871 3.949,8.819 8.82,8.819 H 70.907 V 0 Z"
             style="fill:#031f5c;fill-opacity:1;fill-rule:nonzero;stroke:none"
             id="path2502"
             inkscape:connector-curvature="0" />
        </g>
        <g
           id="g2504"
           transform="translate(1014.749,211.6516)">
          <path
             d="m 0,0 c 0,4.871 -3.949,8.82 -8.82,8.82 -4.871,0 -8.819,-3.949 -8.819,-8.82 0,-4.871 3.948,-8.82 8.819,-8.82 C -3.949,-8.82 0,-4.871 0,0"
             style="fill:#fa384f;fill-opacity:1;fill-rule:nonzero;stroke:none"
             id="path2506"
             inkscape:connector-curvature="0" />
        </g>
        <g
           id="g2508"
           transform="translate(935.3718,238.1107)">
          <path
             d="m 0,0 v 0 c -4.871,0 -8.82,-3.949 -8.82,-8.82 0,-4.871 3.949,-8.819 8.82,-8.819 H 17.639 V 0 Z"
             style="fill:#fa384f;fill-opacity:1;fill-rule:nonzero;stroke:none"
             id="path2510"
             inkscape:connector-curvature="0" />
        </g>
        <g
           id="g2512"
           transform="translate(961.8308,229.291)">
          <path
             d="m 0,0 c 0,-4.871 -3.948,-8.82 -8.82,-8.82 -4.871,0 -8.819,3.949 -8.819,8.82 0,4.871 3.948,8.82 8.819,8.82 C -3.948,8.82 0,4.871 0,0"
             style="fill:#031f5c;fill-opacity:1;fill-rule:nonzero;stroke:none"
             id="path2514"
             inkscape:connector-curvature="0" />
        </g>
        <g
           id="g2516"
           transform="translate(1014.749,229.291)">
          <path
             d="m 0,0 v 0 c 0,-4.871 -3.949,-8.82 -8.82,-8.82 -4.871,0 -8.819,3.949 -8.819,8.82 V 35.303 H 0 Z"
             style="fill:#fcc7d6;fill-opacity:1;fill-rule:nonzero;stroke:none"
             id="path2518"
             inkscape:connector-curvature="0" />
        </g>
        <g
           id="g2520"
           transform="translate(997.1096,229.291)">
          <path
             d="m 0,0 v 0 c 0,-4.871 -3.948,-8.82 -8.82,-8.82 -4.87,0 -8.819,3.949 -8.819,8.82 V 17.639 H 0 Z"
             style="fill:#fa384f;fill-opacity:1;fill-rule:nonzero;stroke:none"
             id="path2522"
             inkscape:connector-curvature="0" />
        </g>
        <g
           id="g2524"
           transform="translate(988.29,255.7501)">
          <path
             d="m 0,0 c -4.871,0 -8.82,-3.949 -8.82,-8.82 0,-4.871 3.949,-8.819 8.82,-8.819 4.871,0 8.82,3.948 8.82,8.819 C 8.82,-3.949 4.871,0 0,0"
             style="fill:#0338d6;fill-opacity:1;fill-rule:nonzero;stroke:none"
             id="path2526"
             inkscape:connector-curvature="0" />
        </g>
        <g
           id="g2528"
           transform="translate(961.8308,229.291)">
          <path
             d="m 0,0 c 0,-4.871 3.949,-8.82 8.82,-8.82 4.871,0 8.82,3.949 8.82,8.82 0,4.871 -3.949,8.82 -8.82,8.82 C 3.949,8.82 0,4.871 0,0"
             style="fill:#031f5c;fill-opacity:1;fill-rule:nonzero;stroke:none"
             id="path2530"
             inkscape:connector-curvature="0" />
        </g>
        <g
           id="g2532"
           transform="translate(979.4705,246.9304)">
          <path
             d="m 0,0 c 0,-4.871 -3.949,-8.82 -8.82,-8.82 -4.871,0 -8.82,3.949 -8.82,8.82 0,4.871 3.949,8.82 8.82,8.82 C -3.949,8.82 0,4.871 0,0"
             style="fill:#fcc7d6;fill-opacity:1;fill-rule:nonzero;stroke:none"
             id="path2534"
             inkscape:connector-curvature="0" />
        </g>
        <g
           id="g2536"
           transform="translate(997.1096,388.415)">
          <path
             d="m 0,0 v 0 c 0,4.871 3.949,8.82 8.82,8.82 4.871,0 8.819,-3.949 8.819,-8.82 V -70.907 H 0 Z"
             style="fill:#0338d6;fill-opacity:1;fill-rule:nonzero;stroke:none"
             id="path2538"
             inkscape:connector-curvature="0" />
        </g>
        <g
           id="g2540"
           transform="translate(988.29,344.0702)">
          <path
             d="m 0,0 v 0 c 4.871,0 8.82,3.949 8.82,8.82 0,4.871 -3.949,8.819 -8.82,8.819 H -17.64 V 0 Z"
             style="fill:#031f5c;fill-opacity:1;fill-rule:nonzero;stroke:none"
             id="path2542"
             inkscape:connector-curvature="0" />
        </g>
        <g
           id="g2544"
           transform="translate(961.8308,352.89)">
          <path
             d="m 0,0 c 0,4.871 3.949,8.82 8.82,8.82 4.871,0 8.82,-3.949 8.82,-8.82 0,-4.871 -3.949,-8.82 -8.82,-8.82 C 3.949,-8.82 0,-4.871 0,0"
             style="fill:#fa384f;fill-opacity:1;fill-rule:nonzero;stroke:none"
             id="path2546"
             inkscape:connector-curvature="0" />
        </g>
        <g
           id="g2548"
           transform="translate(1005.9292,326.4308)">
          <path
             d="m 0,0 c 4.871,0 8.82,-3.949 8.82,-8.82 0,-4.871 -3.949,-8.819 -8.82,-8.819 -4.871,0 -8.82,3.948 -8.82,8.819 C -8.82,-3.949 -4.871,0 0,0"
             style="fill:#031f5c;fill-opacity:1;fill-rule:nonzero;stroke:none"
             id="path2550"
             inkscape:connector-curvature="0" />
        </g>
        <g
           id="g2552"
           transform="translate(979.4705,370.7754)">
          <path
             d="m 0,0 v 0 c 0,-4.871 3.948,-8.82 8.82,-8.82 4.871,0 8.819,3.949 8.819,8.82 V 17.64 H 0 Z"
             style="fill:#fa384f;fill-opacity:1;fill-rule:nonzero;stroke:none"
             id="path2554"
             inkscape:connector-curvature="0" />
        </g>
        <g
           id="g2556"
           transform="translate(988.29,397.2346)">
          <path
             d="m 0,0 c 4.871,0 8.82,-3.949 8.82,-8.82 0,-4.871 -3.949,-8.819 -8.82,-8.819 -4.871,0 -8.82,3.948 -8.82,8.819 C -8.82,-3.949 -4.871,0 0,0"
             style="fill:#031f5c;fill-opacity:1;fill-rule:nonzero;stroke:none"
             id="path2558"
             inkscape:connector-curvature="0" />
        </g>
        <g
           id="g2560"
           transform="translate(961.8308,370.6523)">
          <path
             d="m 0,0 v 0 c 0,-4.871 3.949,-8.82 8.82,-8.82 4.871,0 8.82,3.949 8.82,8.82 V 17.639 H 0 Z"
             style="fill:#fcc7d6;fill-opacity:1;fill-rule:nonzero;stroke:none"
             id="path2562"
             inkscape:connector-curvature="0" />
        </g>
        <g
           id="g2564"
           transform="translate(970.6504,397.1115)">
          <path
             d="m 0,0 c 4.871,0 8.82,-3.949 8.82,-8.82 0,-4.871 -3.949,-8.819 -8.82,-8.819 -4.871,0 -8.82,3.948 -8.82,8.819 C -8.82,-3.949 -4.871,0 0,0"
             style="fill:#fa384f;fill-opacity:1;fill-rule:nonzero;stroke:none"
             id="path2566"
             inkscape:connector-curvature="0" />
        </g>
        <g
           id="g2568"
           transform="translate(961.8308,335.2506)">
          <path
             d="m 0,0 v 0 c 0,4.871 3.949,8.82 8.82,8.82 4.871,0 8.82,-3.949 8.82,-8.82 V -70.907 H 0 Z"
             style="fill:#031f5c;fill-opacity:1;fill-rule:nonzero;stroke:none"
             id="path2570"
             inkscape:connector-curvature="0" />
        </g>
        <g
           id="g2572"
           transform="translate(970.6504,255.8733)">
          <path
             d="m 0,0 c 4.871,0 8.82,3.949 8.82,8.82 0,4.871 -3.949,8.819 -8.82,8.819 -4.871,0 -8.82,-3.948 -8.82,-8.819 C -8.82,3.949 -4.871,0 0,0"
             style="fill:#fa384f;fill-opacity:1;fill-rule:nonzero;stroke:none"
             id="path2574"
             inkscape:connector-curvature="0" />
        </g>
        <g
           id="g2576"
           transform="translate(997.1096,335.2506)">
          <path
             d="m 0,0 v 0 c 0,4.871 -3.948,8.82 -8.82,8.82 -4.871,0 -8.819,-3.949 -8.819,-8.82 V -17.639 H 0 Z"
             style="fill:#fa384f;fill-opacity:1;fill-rule:nonzero;stroke:none"
             id="path2578"
             inkscape:connector-curvature="0" />
        </g>
        <g
           id="g2580"
           transform="translate(988.29,308.7914)">
          <path
             d="m 0,0 c -4.871,0 -8.82,3.949 -8.82,8.82 0,4.871 3.949,8.819 8.82,8.819 4.871,0 8.82,-3.948 8.82,-8.819 C 8.82,3.949 4.871,0 0,0"
             style="fill:#031f5c;fill-opacity:1;fill-rule:nonzero;stroke:none"
             id="path2582"
             inkscape:connector-curvature="0" />
        </g>
        <g
           id="g2584"
           transform="translate(988.29,273.5126)">
          <path
             d="m 0,0 v 0 c -4.871,0 -8.82,3.949 -8.82,8.82 0,4.871 3.949,8.819 8.82,8.819 H 17.639 V 0 Z"
             style="fill:#fcc7d6;fill-opacity:1;fill-rule:nonzero;stroke:none"
             id="path2586"
             inkscape:connector-curvature="0" />
        </g>
        <g
           id="g2588"
           transform="translate(1014.749,282.3324)">
          <path
             d="m 0,0 c 0,4.871 -3.949,8.82 -8.82,8.82 -4.871,0 -8.819,-3.949 -8.819,-8.82 0,-4.871 3.948,-8.82 8.819,-8.82 C -3.949,-8.82 0,-4.871 0,0"
             style="fill:#fa384f;fill-opacity:1;fill-rule:nonzero;stroke:none"
             id="path2590"
             inkscape:connector-curvature="0" />
        </g>
        <g
           id="g2592"
           transform="translate(1005.9294,255.8733)">
          <path
             d="m 0,0 c 4.871,0 8.82,3.949 8.82,8.82 0,4.871 -3.949,8.819 -8.82,8.819 -4.871,0 -8.82,-3.948 -8.82,-8.819 C -8.82,3.949 -4.871,0 0,0"
             style="fill:#031f5c;fill-opacity:1;fill-rule:nonzero;stroke:none"
             id="path2594"
             inkscape:connector-curvature="0" />
        </g>
        <g
           id="g2596"
           transform="translate(988.29,273.5126)">
          <path
             d="m 0,0 c 4.871,0 8.82,-3.949 8.82,-8.82 0,-4.871 -3.949,-8.819 -8.82,-8.819 -4.871,0 -8.82,3.948 -8.82,8.819 C -8.82,-3.949 -4.871,0 0,0"
             style="fill:#fcc7d6;fill-opacity:1;fill-rule:nonzero;stroke:none"
             id="path2598"
             inkscape:connector-curvature="0" />
        </g>
        <g
           id="g2600"
           transform="translate(988.29,308.7914)">
          <path
             d="m 0,0 c -4.871,0 -8.82,-3.949 -8.82,-8.82 0,-4.871 3.949,-8.819 8.82,-8.819 4.871,0 8.82,3.948 8.82,8.819 C 8.82,-3.949 4.871,0 0,0"
             style="fill:#031f5c;fill-opacity:1;fill-rule:nonzero;stroke:none"
             id="path2602"
             inkscape:connector-curvature="0" />
        </g>
        <g
           id="g2604"
           transform="translate(1005.9294,291.152)">
          <path
             d="m 0,0 c -4.871,0 -8.82,3.949 -8.82,8.82 0,4.871 3.949,8.819 8.82,8.819 4.871,0 8.82,-3.948 8.82,-8.819 C 8.82,3.949 4.871,0 0,0"
             style="fill:#fcc7d6;fill-opacity:1;fill-rule:nonzero;stroke:none"
             id="path2606"
             inkscape:connector-curvature="0" />
        </g>
        <g
           id="g2608"
           transform="translate(1156.1104,405.9312)">
          <path
             d="m 0,0 c 0,4.871 3.949,8.82 8.82,8.82 4.871,0 8.82,-3.949 8.82,-8.82 0,-4.871 -3.949,-8.82 -8.82,-8.82 C 3.949,-8.82 0,-4.871 0,0"
             style="fill:#0338d6;fill-opacity:1;fill-rule:nonzero;stroke:none"
             id="path2610"
             inkscape:connector-curvature="0" />
        </g>
        <g
           id="g2612"
           transform="translate(1156.1104,370.6523)">
          <path
             d="m 0,0 v 0 c 0,-4.871 3.949,-8.82 8.82,-8.82 4.871,0 8.82,3.949 8.82,8.82 V 17.639 H 0 Z"
             style="fill:#fcc7d6;fill-opacity:1;fill-rule:nonzero;stroke:none"
             id="path2614"
             inkscape:connector-curvature="0" />
        </g>
        <g
           id="g2616"
           transform="translate(1164.9302,397.1115)">
          <path
             d="m 0,0 c 4.871,0 8.82,-3.949 8.82,-8.82 0,-4.871 -3.949,-8.819 -8.82,-8.819 -4.871,0 -8.82,3.948 -8.82,8.819 C -8.82,-3.949 -4.871,0 0,0"
             style="fill:#fa384f;fill-opacity:1;fill-rule:nonzero;stroke:none"
             id="path2618"
             inkscape:connector-curvature="0" />
        </g>
        <g
           id="g2620"
           transform="translate(1164.9302,361.8327)">
          <path
             d="m 0,0 c 4.871,0 8.82,-3.949 8.82,-8.82 0,-4.871 -3.949,-8.819 -8.82,-8.819 -4.871,0 -8.82,3.948 -8.82,8.819 C -8.82,-3.949 -4.871,0 0,0"
             style="fill:#fcc7d6;fill-opacity:1;fill-rule:nonzero;stroke:none"
             id="path2622"
             inkscape:connector-curvature="0" />
        </g>
        <g
           id="g2624"
           transform="translate(1147.2908,379.4721)">
          <path
             d="m 0,0 v 0 c 4.871,0 8.82,3.949 8.82,8.82 0,4.871 -3.949,8.819 -8.82,8.819 H -70.907 V 0 Z"
             style="fill:#fcc7d6;fill-opacity:1;fill-rule:nonzero;stroke:none"
             id="path2626"
             inkscape:connector-curvature="0" />
        </g>
        <g
           id="g2628"
           transform="translate(1103.1921,335.3736)">
          <path
             d="m 0,0 c 0,-4.871 3.949,-8.82 8.82,-8.82 4.871,0 8.82,3.949 8.82,8.82 0,4.871 -3.949,8.82 -8.82,8.82 C 3.949,8.82 0,4.871 0,0"
             style="fill:#fcc7d6;fill-opacity:1;fill-rule:nonzero;stroke:none"
             id="path2630"
             inkscape:connector-curvature="0" />
        </g>
        <g
           id="g2632"
           transform="translate(1102.946,370.6524)">
          <path
             d="m 0,0 v 0 c 0,4.871 3.948,8.82 8.82,8.82 4.871,0 8.819,-3.949 8.819,-8.82 V -17.639 H 0 Z"
             style="fill:#031f5c;fill-opacity:1;fill-rule:nonzero;stroke:none"
             id="path2634"
             inkscape:connector-curvature="0" />
        </g>
        <g
           id="g2636"
           transform="translate(1111.7656,344.1932)">
          <path
             d="m 0,0 c 4.871,0 8.82,3.949 8.82,8.82 0,4.871 -3.949,8.819 -8.82,8.819 -4.871,0 -8.82,-3.948 -8.82,-8.819 C -8.82,3.949 -4.871,0 0,0"
             style="fill:#fa384f;fill-opacity:1;fill-rule:nonzero;stroke:none"
             id="path2638"
             inkscape:connector-curvature="0" />
        </g>
        <g
           id="g2640"
           transform="translate(1085.3066,388.2917)">
          <path
             d="m 0,0 c 0,4.871 -3.948,8.82 -8.82,8.82 -4.871,0 -8.819,-3.949 -8.819,-8.82 0,-4.871 3.948,-8.82 8.819,-8.82 C -3.948,-8.82 0,-4.871 0,0"
             style="fill:#031f5c;fill-opacity:1;fill-rule:nonzero;stroke:none"
             id="path2642"
             inkscape:connector-curvature="0" />
        </g>
        <g
           id="g2644"
           transform="translate(1023.5688,414.7509)">
          <path
             d="m 0,0 v 0 c -4.871,0 -8.82,-3.949 -8.82,-8.82 0,-4.871 3.949,-8.819 8.82,-8.819 H 124.175 V 0 Z"
             style="fill:#fa384f;fill-opacity:1;fill-rule:nonzero;stroke:none"
             id="path2646"
             inkscape:connector-curvature="0" />
        </g>
        <g
           id="g2648"
           transform="translate(1138.4709,405.9312)">
          <path
             d="m 0,0 c 0,-4.871 3.949,-8.82 8.82,-8.82 4.871,0 8.819,3.949 8.819,8.82 0,4.871 -3.948,8.82 -8.819,8.82 C 3.949,8.82 0,4.871 0,0"
             style="fill:#031f5c;fill-opacity:1;fill-rule:nonzero;stroke:none"
             id="path2650"
             inkscape:connector-curvature="0" />
        </g>
        <g
           id="g2652"
           transform="translate(1147.2908,379.4721)">
          <path
             d="m 0,0 v 0 c 4.871,0 8.82,-3.949 8.82,-8.82 0,-4.871 -3.949,-8.819 -8.82,-8.819 H -17.639 V 0 Z"
             style="fill:#fa384f;fill-opacity:1;fill-rule:nonzero;stroke:none"
             id="path2654"
             inkscape:connector-curvature="0" />
        </g>
        <g
           id="g2656"
           transform="translate(1120.8318,370.6524)">
          <path
             d="m 0,0 c 0,-4.871 3.948,-8.82 8.82,-8.82 4.871,0 8.819,3.949 8.819,8.82 0,4.871 -3.948,8.82 -8.819,8.82 C 3.948,8.82 0,4.871 0,0"
             style="fill:#031f5c;fill-opacity:1;fill-rule:nonzero;stroke:none"
             id="path2658"
             inkscape:connector-curvature="0" />
        </g>
        <g
           id="g2660"
           transform="translate(1129.6514,344.1933)">
          <path
             d="m 0,0 v 0 c -4.871,0 -8.82,3.949 -8.82,8.82 0,4.871 3.949,8.819 8.82,8.819 H 17.639 V 0 Z"
             style="fill:#fcc7d6;fill-opacity:1;fill-rule:nonzero;stroke:none"
             id="path2662"
             inkscape:connector-curvature="0" />
        </g>
        <g
           id="g2664"
           transform="translate(1156.1104,353.013)">
          <path
             d="m 0,0 c 0,4.871 -3.949,8.82 -8.82,8.82 -4.871,0 -8.819,-3.949 -8.819,-8.82 0,-4.871 3.948,-8.82 8.819,-8.82 C -3.949,-8.82 0,-4.871 0,0"
             style="fill:#fa384f;fill-opacity:1;fill-rule:nonzero;stroke:none"
             id="path2666"
             inkscape:connector-curvature="0" />
        </g>
        <g
           id="g2668"
           transform="translate(1120.5854,317.7342)">
          <path
             d="m 0,0 c 0,4.871 -3.949,8.82 -8.82,8.82 -4.871,0 -8.819,-3.949 -8.819,-8.82 0,-4.871 3.948,-8.82 8.819,-8.82 C -3.949,-8.82 0,-4.871 0,0"
             style="fill:#031f5c;fill-opacity:1;fill-rule:nonzero;stroke:none"
             id="path2670"
             inkscape:connector-curvature="0" />
        </g>
        <g
           id="g2672"
           transform="translate(1094.1265,326.5538)">
          <path
             d="m 0,0 v 0 c 4.871,0 8.82,-3.949 8.82,-8.82 0,-4.871 -3.949,-8.819 -8.82,-8.819 H -35.525 V 0 Z"
             style="fill:#fcc7d6;fill-opacity:1;fill-rule:nonzero;stroke:none"
             id="path2674"
             inkscape:connector-curvature="0" />
        </g>
        <g
           id="g2676"
           transform="translate(1050.0278,317.7342)">
          <path
             d="m 0,0 c 0,-4.871 3.949,-8.82 8.82,-8.82 4.871,0 8.819,3.949 8.819,8.82 0,4.871 -3.948,8.82 -8.819,8.82 C 3.949,8.82 0,4.871 0,0"
             style="fill:#fa384f;fill-opacity:1;fill-rule:nonzero;stroke:none"
             id="path2678"
             inkscape:connector-curvature="0" />
        </g>
        <g
           id="g2680"
           transform="translate(1094.1265,344.1932)">
          <path
             d="m 0,0 v 0 c 4.871,0 8.82,-3.949 8.82,-8.82 0,-4.871 -3.949,-8.819 -8.82,-8.819 H -35.279 V 0 Z"
             style="fill:#fa384f;fill-opacity:1;fill-rule:nonzero;stroke:none"
             id="path2682"
             inkscape:connector-curvature="0" />
        </g>
        <g
           id="g2684"
           transform="translate(1050.0278,335.3736)">
          <path
             d="m 0,0 c 0,-4.871 3.949,-8.82 8.82,-8.82 4.871,0 8.819,3.949 8.819,8.82 0,4.871 -3.948,8.82 -8.819,8.82 C 3.949,8.82 0,4.871 0,0"
             style="fill:#031f5c;fill-opacity:1;fill-rule:nonzero;stroke:none"
             id="path2686"
             inkscape:connector-curvature="0" />
        </g>
        <g
           id="g2688"
           transform="translate(1014.749,317.734)">
          <path
             d="m 0,0 v 0 c 0,-4.871 3.949,-8.82 8.82,-8.82 4.871,0 8.819,3.949 8.819,8.82 V 17.639 H 0 Z"
             style="fill:#fcc7d6;fill-opacity:1;fill-rule:nonzero;stroke:none"
             id="path2690"
             inkscape:connector-curvature="0" />
        </g>
        <g
           id="g2692"
           transform="translate(1023.5688,344.1932)">
          <path
             d="m 0,0 c 4.871,0 8.82,-3.949 8.82,-8.82 0,-4.871 -3.949,-8.819 -8.82,-8.819 -4.871,0 -8.82,3.948 -8.82,8.819 C -8.82,-3.949 -4.871,0 0,0"
             style="fill:#fa384f;fill-opacity:1;fill-rule:nonzero;stroke:none"
             id="path2694"
             inkscape:connector-curvature="0" />
        </g>
        <g
           id="g2696"
           transform="translate(1050.0278,317.734)">
          <path
             d="m 0,0 v 0 c 0,-4.871 -3.949,-8.82 -8.82,-8.82 -4.871,0 -8.819,3.949 -8.819,8.82 V 17.639 H 0 Z"
             style="fill:#031f5c;fill-opacity:1;fill-rule:nonzero;stroke:none"
             id="path2698"
             inkscape:connector-curvature="0" />
        </g>
        <g
           id="g2700"
           transform="translate(1041.2083,344.1932)">
          <path
             d="m 0,0 c -4.871,0 -8.82,-3.949 -8.82,-8.82 0,-4.871 3.949,-8.819 8.82,-8.819 4.871,0 8.82,3.948 8.82,8.819 C 8.82,-3.949 4.871,0 0,0"
             style="fill:#0338d6;fill-opacity:1;fill-rule:nonzero;stroke:none"
             id="path2702"
             inkscape:connector-curvature="0" />
        </g>
        <g
           id="g2704"
           transform="translate(1094.1265,344.1933)">
          <path
             d="m 0,0 v 0 c 4.871,0 8.82,3.949 8.82,8.82 0,4.871 -3.949,8.819 -8.82,8.819 H -70.907 V 0 Z"
             style="fill:#031f5c;fill-opacity:1;fill-rule:nonzero;stroke:none"
             id="path2706"
             inkscape:connector-curvature="0" />
        </g>
        <g
           id="g2708"
           transform="translate(1014.749,353.013)">
          <path
             d="m 0,0 c 0,4.871 3.949,8.82 8.82,8.82 4.871,0 8.819,-3.949 8.819,-8.82 0,-4.871 -3.948,-8.82 -8.819,-8.82 C 3.949,-8.82 0,-4.871 0,0"
             style="fill:#fa384f;fill-opacity:1;fill-rule:nonzero;stroke:none"
             id="path2710"
             inkscape:connector-curvature="0" />
        </g>
        <g
           id="g2712"
           transform="translate(1094.1265,379.472)">
          <path
             d="m 0,0 v 0 c 4.871,0 8.82,-3.949 8.82,-8.82 0,-4.871 -3.949,-8.819 -8.82,-8.819 H -17.639 V 0 Z"
             style="fill:#fa384f;fill-opacity:1;fill-rule:nonzero;stroke:none"
             id="path2714"
             inkscape:connector-curvature="0" />
        </g>
        <g
           id="g2716"
           transform="translate(1067.6672,370.6523)">
          <path
             d="m 0,0 c 0,-4.871 3.949,-8.82 8.82,-8.82 4.871,0 8.819,3.949 8.819,8.82 0,4.871 -3.948,8.82 -8.819,8.82 C 3.949,8.82 0,4.871 0,0"
             style="fill:#031f5c;fill-opacity:1;fill-rule:nonzero;stroke:none"
             id="path2718"
             inkscape:connector-curvature="0" />
        </g>
        <g
           id="g2720"
           transform="translate(1032.3884,370.6523)">
          <path
             d="m 0,0 v 0 c 0,-4.871 3.949,-8.82 8.82,-8.82 4.871,0 8.819,3.949 8.819,8.82 V 17.639 H 0 Z"
             style="fill:#fa384f;fill-opacity:1;fill-rule:nonzero;stroke:none"
             id="path2722"
             inkscape:connector-curvature="0" />
        </g>
        <g
           id="g2724"
           transform="translate(1041.2083,397.1115)">
          <path
             d="m 0,0 c 4.871,0 8.82,-3.949 8.82,-8.82 0,-4.871 -3.949,-8.819 -8.82,-8.819 -4.871,0 -8.82,3.948 -8.82,8.819 C -8.82,-3.949 -4.871,0 0,0"
             style="fill:#0338d6;fill-opacity:1;fill-rule:nonzero;stroke:none"
             id="path2726"
             inkscape:connector-curvature="0" />
        </g>
        <g
           id="g2728"
           transform="translate(1067.6672,370.6524)">
          <path
             d="m 0,0 c 0,-4.871 -3.949,-8.82 -8.82,-8.82 -4.871,0 -8.819,3.949 -8.819,8.82 0,4.871 3.948,8.82 8.819,8.82 C -3.949,8.82 0,4.871 0,0"
             style="fill:#031f5c;fill-opacity:1;fill-rule:nonzero;stroke:none"
             id="path2730"
             inkscape:connector-curvature="0" />
        </g>
        <g
           id="g2732"
           transform="translate(1050.0278,388.2918)">
          <path
             d="m 0,0 c 0,-4.871 3.949,-8.82 8.82,-8.82 4.871,0 8.819,3.949 8.819,8.82 0,4.871 -3.948,8.82 -8.819,8.82 C 3.949,8.82 0,4.871 0,0"
             style="fill:#fcc7d6;fill-opacity:1;fill-rule:nonzero;stroke:none"
             id="path2734"
             inkscape:connector-curvature="0" />
        </g>
        <g
           id="g2736"
           transform="translate(1111.8887,308.9146)">
          <path
             d="m 0,0 c 4.871,0 8.82,-3.949 8.82,-8.82 0,-4.871 -3.949,-8.819 -8.82,-8.819 -4.871,0 -8.82,3.948 -8.82,8.819 C -8.82,-3.949 -4.871,0 0,0"
             style="fill:#fa384f;fill-opacity:1;fill-rule:nonzero;stroke:none"
             id="path2738"
             inkscape:connector-curvature="0" />
        </g>
        <g
           id="g2740"
           transform="translate(1094.2495,308.9145)">
          <path
             d="m 0,0 v 0 c 4.871,0 8.819,-3.949 8.819,-8.82 0,-4.871 -3.948,-8.819 -8.819,-8.819 H -70.907 V 0 Z"
             style="fill:#031f5c;fill-opacity:1;fill-rule:nonzero;stroke:none"
             id="path2742"
             inkscape:connector-curvature="0" />
        </g>
        <g
           id="g2744"
           transform="translate(1014.8721,300.0948)">
          <path
             d="m 0,0 c 0,-4.871 3.949,-8.82 8.82,-8.82 4.871,0 8.819,3.949 8.819,8.82 0,4.871 -3.948,8.82 -8.819,8.82 C 3.949,8.82 0,4.871 0,0"
             style="fill:#fa384f;fill-opacity:1;fill-rule:nonzero;stroke:none"
             id="path2746"
             inkscape:connector-curvature="0" />
        </g>
        <g
           id="g2748"
           transform="translate(1032.5115,282.4554)">
          <path
             d="m 0,0 v 0 c 0,4.871 3.949,8.82 8.82,8.82 4.871,0 8.819,-3.949 8.819,-8.82 V -17.639 H 0 Z"
             style="fill:#fa384f;fill-opacity:1;fill-rule:nonzero;stroke:none"
             id="path2750"
             inkscape:connector-curvature="0" />
        </g>
        <g
           id="g2752"
           transform="translate(1041.3313,255.9963)">
          <path
             d="m 0,0 c 4.871,0 8.82,3.949 8.82,8.82 0,4.871 -3.949,8.819 -8.82,8.819 -4.871,0 -8.82,-3.948 -8.82,-8.819 C -8.82,3.949 -4.871,0 0,0"
             style="fill:#fcc7d6;fill-opacity:1;fill-rule:nonzero;stroke:none"
             id="path2754"
             inkscape:connector-curvature="0" />
        </g>
        <g
           id="g2756"
           transform="translate(1014.8721,264.816)">
          <path
             d="m 0,0 c 0,-4.871 3.949,-8.82 8.82,-8.82 4.871,0 8.819,3.949 8.819,8.82 0,4.871 -3.948,8.82 -8.819,8.82 C 3.949,8.82 0,4.871 0,0"
             style="fill:#031f5c;fill-opacity:1;fill-rule:nonzero;stroke:none"
             id="path2758"
             inkscape:connector-curvature="0" />
        </g>
        <g
           id="g2760"
           transform="translate(1032.5115,282.4554)">
          <path
             d="m 0,0 c 0,-4.871 -3.948,-8.82 -8.82,-8.82 -4.871,0 -8.819,3.949 -8.819,8.82 0,4.871 3.948,8.82 8.819,8.82 C -3.948,8.82 0,4.871 0,0"
             style="fill:#fcc7d6;fill-opacity:1;fill-rule:nonzero;stroke:none"
             id="path2762"
             inkscape:connector-curvature="0" />
        </g>
        <g
           id="g2764"
           transform="translate(1067.7903,282.4554)">
          <path
             d="m 0,0 c 0,4.871 -3.949,8.82 -8.82,8.82 -4.871,0 -8.819,-3.949 -8.819,-8.82 0,-4.871 3.948,-8.82 8.819,-8.82 C -3.949,-8.82 0,-4.871 0,0"
             style="fill:#031f5c;fill-opacity:1;fill-rule:nonzero;stroke:none"
             id="path2766"
             inkscape:connector-curvature="0" />
        </g>
        <g
           id="g2768"
           transform="translate(1050.1509,264.816)">
          <path
             d="m 0,0 c 0,4.871 3.948,8.82 8.82,8.82 4.871,0 8.819,-3.949 8.819,-8.82 0,-4.871 -3.948,-8.82 -8.819,-8.82 C 3.948,-8.82 0,-4.871 0,0"
             style="fill:#fcc7d6;fill-opacity:1;fill-rule:nonzero;stroke:none"
             id="path2770"
             inkscape:connector-curvature="0" />
        </g>
        <g
           id="g2772"
           transform="translate(1023.6919,185.3156)">
          <path
             d="m 0,0 c -4.871,0 -8.82,3.949 -8.82,8.82 0,4.871 3.949,8.819 8.82,8.819 4.871,0 8.82,-3.948 8.82,-8.819 C 8.82,3.949 4.871,0 0,0"
             style="fill:#031f5c;fill-opacity:1;fill-rule:nonzero;stroke:none"
             id="path2774"
             inkscape:connector-curvature="0" />
        </g>
        <g
           id="g2776"
           transform="translate(1058.9705,255.8732)">
          <path
             d="m 0,0 c -4.871,0 -8.82,-3.949 -8.82,-8.82 0,-4.871 3.949,-8.819 8.82,-8.819 4.871,0 8.82,3.948 8.82,8.819 C 8.82,-3.949 4.871,0 0,0"
             style="fill:#0338d6;fill-opacity:1;fill-rule:nonzero;stroke:none"
             id="path2778"
             inkscape:connector-curvature="0" />
        </g>
        <g
           id="g2780"
           transform="translate(1041.3313,238.2338)">
          <path
             d="m 0,0 v 0 c 4.871,0 8.82,-3.949 8.82,-8.82 0,-4.871 -3.949,-8.819 -8.82,-8.819 H -17.639 V 0 Z"
             style="fill:#fcc7d6;fill-opacity:1;fill-rule:nonzero;stroke:none"
             id="path2782"
             inkscape:connector-curvature="0" />
        </g>
        <g
           id="g2784"
           transform="translate(1014.8721,229.414)">
          <path
             d="m 0,0 c 0,-4.871 3.949,-8.82 8.82,-8.82 4.871,0 8.819,3.949 8.819,8.82 0,4.871 -3.948,8.82 -8.819,8.82 C 3.949,8.82 0,4.871 0,0"
             style="fill:#fa384f;fill-opacity:1;fill-rule:nonzero;stroke:none"
             id="path2786"
             inkscape:connector-curvature="0" />
        </g>
        <g
           id="g2788"
           transform="translate(1023.6919,255.8732)">
          <path
             d="m 0,0 c -4.871,0 -8.82,-3.949 -8.82,-8.82 0,-4.871 3.949,-8.819 8.82,-8.819 4.871,0 8.82,3.948 8.82,8.819 C 8.82,-3.949 4.871,0 0,0"
             style="fill:#031f5c;fill-opacity:1;fill-rule:nonzero;stroke:none"
             id="path2790"
             inkscape:connector-curvature="0" />
        </g>
        <g
           id="g2792"
           transform="translate(1041.3313,238.2338)">
          <path
             d="m 0,0 c -4.871,0 -8.82,3.949 -8.82,8.82 0,4.871 3.949,8.819 8.82,8.819 4.871,0 8.82,-3.948 8.82,-8.819 C 8.82,3.949 4.871,0 0,0"
             style="fill:#fcc7d6;fill-opacity:1;fill-rule:nonzero;stroke:none"
             id="path2794"
             inkscape:connector-curvature="0" />
        </g>
        <g
           id="g2796"
           transform="translate(1023.6919,220.5944)">
          <path
             d="m 0,0 c 4.871,0 8.82,-3.949 8.82,-8.82 0,-4.871 -3.949,-8.819 -8.82,-8.819 -4.871,0 -8.82,3.948 -8.82,8.819 C -8.82,-3.949 -4.871,0 0,0"
             style="fill:#fcc7d6;fill-opacity:1;fill-rule:nonzero;stroke:none"
             id="path2798"
             inkscape:connector-curvature="0" />
        </g>
        <g
           id="g2800"
           transform="translate(855.8713,458.8494)">
          <path
             d="m 0,0 v 0 c 0,-4.871 -3.948,-8.82 -8.82,-8.82 -4.87,0 -8.819,3.949 -8.819,8.82 V 35.279 H 0 Z"
             style="fill:#fa384f;fill-opacity:1;fill-rule:nonzero;stroke:none"
             id="path2802"
             inkscape:connector-curvature="0" />
        </g>
        <g
           id="g2804"
           transform="translate(802.9534,423.5706)">
          <path
             d="m 0,0 v 0 c 0,-4.871 3.948,-8.82 8.82,-8.82 4.871,0 8.819,3.949 8.819,8.82 V 17.639 H 0 Z"
             style="fill:#0338d6;fill-opacity:1;fill-rule:nonzero;stroke:none"
             id="path2806"
             inkscape:connector-curvature="0" />
        </g>
        <g
           id="g2808"
           transform="translate(811.7729,450.0298)">
          <path
             d="m 0,0 c 4.871,0 8.82,-3.949 8.82,-8.82 0,-4.871 -3.949,-8.819 -8.82,-8.819 -4.871,0 -8.82,3.948 -8.82,8.819 C -8.82,-3.949 -4.871,0 0,0"
             style="fill:#031f5c;fill-opacity:1;fill-rule:nonzero;stroke:none"
             id="path2810"
             inkscape:connector-curvature="0" />
        </g>
        <g
           id="g2812"
           transform="translate(829.4124,450.0298)">
          <path
             d="m 0,0 v 0 c 4.871,0 8.82,3.949 8.82,8.82 0,4.871 -3.949,8.819 -8.82,8.819 H -17.639 V 0 Z"
             style="fill:#031f5c;fill-opacity:1;fill-rule:nonzero;stroke:none"
             id="path2814"
             inkscape:connector-curvature="0" />
        </g>
        <g
           id="g2816"
           transform="translate(802.9534,458.8494)">
          <path
             d="m 0,0 c 0,4.871 3.948,8.82 8.82,8.82 4.871,0 8.819,-3.949 8.819,-8.82 0,-4.871 -3.948,-8.82 -8.819,-8.82 C 3.948,-8.82 0,-4.871 0,0"
             style="fill:#fa384f;fill-opacity:1;fill-rule:nonzero;stroke:none"
             id="path2818"
             inkscape:connector-curvature="0" />
        </g>
        <g
           id="g2820"
           transform="translate(847.052,432.3904)">
          <path
             d="m 0,0 v 0 c 4.871,0 8.819,3.949 8.819,8.82 0,4.871 -3.948,8.819 -8.819,8.819 H -17.64 V 0 Z"
             style="fill:#fa384f;fill-opacity:1;fill-rule:nonzero;stroke:none"
             id="path2822"
             inkscape:connector-curvature="0" />
        </g>
        <g
           id="g2824"
           transform="translate(820.5925,441.2101)">
          <path
             d="m 0,0 c 0,4.871 3.949,8.82 8.82,8.82 4.871,0 8.819,-3.949 8.819,-8.82 0,-4.871 -3.948,-8.82 -8.819,-8.82 C 3.949,-8.82 0,-4.871 0,0"
             style="fill:#fcc7d6;fill-opacity:1;fill-rule:nonzero;stroke:none"
             id="path2826"
             inkscape:connector-curvature="0" />
        </g>
        <g
           id="g2828"
           transform="translate(873.5107,458.8495)">
          <path
             d="m 0,0 v 0 c 0,4.871 -3.949,8.82 -8.82,8.82 -4.871,0 -8.819,-3.949 -8.819,-8.82 V -17.64 H 0 Z"
             style="fill:#fcc7d6;fill-opacity:1;fill-rule:nonzero;stroke:none"
             id="path2830"
             inkscape:connector-curvature="0" />
        </g>
        <g
           id="g2832"
           transform="translate(864.6912,432.3904)">
          <path
             d="m 0,0 c -4.871,0 -8.82,3.949 -8.82,8.82 0,4.871 3.949,8.819 8.82,8.819 4.871,0 8.82,-3.948 8.82,-8.819 C 8.82,3.949 4.871,0 0,0"
             style="fill:#fa384f;fill-opacity:1;fill-rule:nonzero;stroke:none"
             id="path2834"
             inkscape:connector-curvature="0" />
        </g>
        <g
           id="g2836"
           transform="translate(847.0518,502.9479)">
          <path
             d="m 0,0 c -4.871,0 -8.82,-3.949 -8.82,-8.82 0,-4.871 3.949,-8.819 8.82,-8.819 4.871,0 8.82,3.948 8.82,8.819 C 8.82,-3.949 4.871,0 0,0"
             style="fill:#031f5c;fill-opacity:1;fill-rule:nonzero;stroke:none"
             id="path2838"
             inkscape:connector-curvature="0" />
        </g>
        <g
           id="g2840"
           transform="translate(855.8713,564.6859)">
          <path
             d="m 0,0 v 0 c 0,4.871 -3.948,8.82 -8.82,8.82 -4.871,0 -8.819,-3.949 -8.819,-8.82 V -17.639 H 0 Z"
             style="fill:#fa384f;fill-opacity:1;fill-rule:nonzero;stroke:none"
             id="path2842"
             inkscape:connector-curvature="0" />
        </g>
        <g
           id="g2844"
           transform="translate(847.0518,538.2267)">
          <path
             d="m 0,0 c -4.871,0 -8.82,3.949 -8.82,8.82 0,4.871 3.949,8.819 8.82,8.819 4.871,0 8.82,-3.948 8.82,-8.819 C 8.82,3.949 4.871,0 0,0"
             style="fill:#031f5c;fill-opacity:1;fill-rule:nonzero;stroke:none"
             id="path2846"
             inkscape:connector-curvature="0" />
        </g>
        <g
           id="g2848"
           transform="translate(873.5107,564.6859)">
          <path
             d="m 0,0 v 0 c 0,4.871 -3.949,8.82 -8.82,8.82 -4.871,0 -8.819,-3.949 -8.819,-8.82 V -17.64 H 0 Z"
             style="fill:#fcc7d6;fill-opacity:1;fill-rule:nonzero;stroke:none"
             id="path2850"
             inkscape:connector-curvature="0" />
        </g>
        <g
           id="g2852"
           transform="translate(864.6912,538.2267)">
          <path
             d="m 0,0 c -4.871,0 -8.82,3.949 -8.82,8.82 0,4.871 3.949,8.819 8.82,8.819 4.871,0 8.82,-3.948 8.82,-8.819 C 8.82,3.949 4.871,0 0,0"
             style="fill:#fa384f;fill-opacity:1;fill-rule:nonzero;stroke:none"
             id="path2854"
             inkscape:connector-curvature="0" />
        </g>
        <g
           id="g2856"
           transform="translate(864.6912,538.2267)">
          <path
             d="m 0,0 c 4.871,0 8.82,-3.949 8.82,-8.82 0,-4.871 -3.949,-8.819 -8.82,-8.819 -4.871,0 -8.82,3.948 -8.82,8.819 C -8.82,-3.949 -4.871,0 0,0"
             style="fill:#031f5c;fill-opacity:1;fill-rule:nonzero;stroke:none"
             id="path2858"
             inkscape:connector-curvature="0" />
        </g>
        <g
           id="g2860"
           transform="translate(873.5107,511.7677)">
          <path
             d="m 0,0 v 0 c 0,4.871 -3.949,8.82 -8.82,8.82 -4.871,0 -8.819,-3.949 -8.819,-8.82 V -35.525 H 0 Z"
             style="fill:#0338d6;fill-opacity:1;fill-rule:nonzero;stroke:none"
             id="path2862"
             inkscape:connector-curvature="0" />
        </g>
        <g
           id="g2864"
           transform="translate(864.6912,467.6692)">
          <path
             d="m 0,0 c -4.871,0 -8.82,3.949 -8.82,8.82 0,4.871 3.949,8.819 8.82,8.819 4.871,0 8.82,-3.948 8.82,-8.819 C 8.82,3.949 4.871,0 0,0"
             style="fill:#fcc7d6;fill-opacity:1;fill-rule:nonzero;stroke:none"
             id="path2866"
             inkscape:connector-curvature="0" />
        </g>
        <g
           id="g2868"
           transform="translate(855.8713,511.7676)">
          <path
             d="m 0,0 c 0,4.871 -3.948,8.82 -8.82,8.82 -4.871,0 -8.819,-3.949 -8.819,-8.82 0,-4.871 3.948,-8.82 8.819,-8.82 C -3.948,-8.82 0,-4.871 0,0"
             style="fill:#fa384f;fill-opacity:1;fill-rule:nonzero;stroke:none"
             id="path2870"
             inkscape:connector-curvature="0" />
        </g>
        <g
           id="g2872"
           transform="translate(829.4124,467.6691)">
          <path
             d="m 0,0 c 4.871,0 8.82,3.949 8.82,8.82 0,4.871 -3.949,8.819 -8.82,8.819 -4.871,0 -8.82,-3.948 -8.82,-8.819 C -8.82,3.949 -4.871,0 0,0"
             style="fill:#031f5c;fill-opacity:1;fill-rule:nonzero;stroke:none"
             id="path2874"
             inkscape:connector-curvature="0" />
        </g>
        <g
           id="g2876"
           transform="translate(811.7729,485.3085)">
          <path
             d="m 0,0 c 4.871,0 8.82,-3.949 8.82,-8.82 0,-4.871 -3.949,-8.819 -8.82,-8.819 -4.871,0 -8.82,3.948 -8.82,8.819 C -8.82,-3.949 -4.871,0 0,0"
             style="fill:#fcc7d6;fill-opacity:1;fill-rule:nonzero;stroke:none"
             id="path2878"
             inkscape:connector-curvature="0" />
        </g>
        <g
           id="g2880"
           transform="translate(882.3303,450.0297)">
          <path
             d="m 0,0 v 0 c -4.871,0 -8.82,-3.949 -8.82,-8.82 0,-4.871 3.949,-8.819 8.82,-8.819 H 70.907 V 0 Z"
             style="fill:#fcc7d6;fill-opacity:1;fill-rule:nonzero;stroke:none"
             id="path2882"
             inkscape:connector-curvature="0" />
        </g>
        <g
           id="g2884"
           transform="translate(882.3303,485.3086)">
          <path
             d="m 0,0 v 0 c -4.871,0 -8.82,3.949 -8.82,8.82 0,4.871 3.949,8.819 8.82,8.819 H 35.525 V 0 Z"
             style="fill:#031f5c;fill-opacity:1;fill-rule:nonzero;stroke:none"
             id="path2886"
             inkscape:connector-curvature="0" />
        </g>
        <g
           id="g2888"
           transform="translate(926.429,494.1283)">
          <path
             d="m 0,0 c 0,4.871 -3.949,8.82 -8.82,8.82 -4.871,0 -8.819,-3.949 -8.819,-8.82 0,-4.871 3.948,-8.82 8.819,-8.82 C -3.949,-8.82 0,-4.871 0,0"
             style="fill:#fcc7d6;fill-opacity:1;fill-rule:nonzero;stroke:none"
             id="path2890"
             inkscape:connector-curvature="0" />
        </g>
        <g
           id="g2892"
           transform="translate(926.675,458.8494)">
          <path
             d="m 0,0 v 0 c 0,-4.871 -3.948,-8.82 -8.82,-8.82 -4.871,0 -8.819,3.949 -8.819,8.82 V 17.64 H 0 Z"
             style="fill:#031f5c;fill-opacity:1;fill-rule:nonzero;stroke:none"
             id="path2894"
             inkscape:connector-curvature="0" />
        </g>
        <g
           id="g2896"
           transform="translate(917.8555,485.3086)">
          <path
             d="m 0,0 c -4.871,0 -8.82,-3.949 -8.82,-8.82 0,-4.871 3.949,-8.819 8.82,-8.819 4.871,0 8.82,3.948 8.82,8.819 C 8.82,-3.949 4.871,0 0,0"
             style="fill:#fa384f;fill-opacity:1;fill-rule:nonzero;stroke:none"
             id="path2898"
             inkscape:connector-curvature="0" />
        </g>
        <g
           id="g2900"
           transform="translate(944.3147,441.2101)">
          <path
             d="m 0,0 c 0,-4.871 3.948,-8.82 8.82,-8.82 4.871,0 8.819,3.949 8.819,8.82 0,4.871 -3.948,8.82 -8.819,8.82 C 3.948,8.82 0,4.871 0,0"
             style="fill:#031f5c;fill-opacity:1;fill-rule:nonzero;stroke:none"
             id="path2902"
             inkscape:connector-curvature="0" />
        </g>
        <g
           id="g2904"
           transform="translate(1006.0525,414.751)">
          <path
             d="m 0,0 v 0 c 4.871,0 8.82,3.949 8.82,8.82 0,4.871 -3.949,8.819 -8.82,8.819 H -124.175 V 0 Z"
             style="fill:#fa384f;fill-opacity:1;fill-rule:nonzero;stroke:none"
             id="path2906"
             inkscape:connector-curvature="0" />
        </g>
        <g
           id="g2908"
           transform="translate(891.1504,423.5707)">
          <path
             d="m 0,0 c 0,4.871 -3.949,8.82 -8.82,8.82 -4.871,0 -8.819,-3.949 -8.819,-8.82 0,-4.871 3.948,-8.82 8.819,-8.82 C -3.949,-8.82 0,-4.871 0,0"
             style="fill:#031f5c;fill-opacity:1;fill-rule:nonzero;stroke:none"
             id="path2910"
             inkscape:connector-curvature="0" />
        </g>
        <g
           id="g2912"
           transform="translate(899.97,467.6691)">
          <path
             d="m 0,0 v 0 c 4.871,0 8.82,-3.949 8.82,-8.82 0,-4.871 -3.949,-8.819 -8.82,-8.819 H -17.639 V 0 Z"
             style="fill:#fa384f;fill-opacity:1;fill-rule:nonzero;stroke:none"
             id="path2914"
             inkscape:connector-curvature="0" />
        </g>
        <g
           id="g2916"
           transform="translate(873.5107,458.8494)">
          <path
             d="m 0,0 c 0,-4.871 3.949,-8.82 8.82,-8.82 4.871,0 8.82,3.949 8.82,8.82 0,4.871 -3.949,8.82 -8.82,8.82 C 3.949,8.82 0,4.871 0,0"
             style="fill:#031f5c;fill-opacity:1;fill-rule:nonzero;stroke:none"
             id="path2918"
             inkscape:connector-curvature="0" />
        </g>
        <g
           id="g2920"
           transform="translate(899.97,485.3085)">
          <path
             d="m 0,0 v 0 c 4.871,0 8.82,-3.949 8.82,-8.82 0,-4.871 -3.949,-8.819 -8.82,-8.819 H -17.64 V 0 Z"
             style="fill:#0338d6;fill-opacity:1;fill-rule:nonzero;stroke:none"
             id="path2922"
             inkscape:connector-curvature="0" />
        </g>
        <g
           id="g2924"
           transform="translate(873.5107,476.4889)">
          <path
             d="m 0,0 c 0,-4.871 3.949,-8.82 8.82,-8.82 4.871,0 8.82,3.949 8.82,8.82 0,4.871 -3.949,8.82 -8.82,8.82 C 3.949,8.82 0,4.871 0,0"
             style="fill:#fa384f;fill-opacity:1;fill-rule:nonzero;stroke:none"
             id="path2926"
             inkscape:connector-curvature="0" />
        </g>
        <g
           id="g2928"
           transform="translate(882.5764,502.948)">
          <path
             d="m 0,0 v 0 c -4.871,0 -8.819,3.949 -8.819,8.82 0,4.871 3.948,8.819 8.819,8.819 H 17.64 V 0 Z"
             style="fill:#fcc7d6;fill-opacity:1;fill-rule:nonzero;stroke:none"
             id="path2930"
             inkscape:connector-curvature="0" />
        </g>
        <g
           id="g2932"
           transform="translate(909.0359,511.7677)">
          <path
             d="m 0,0 c 0,4.871 -3.949,8.82 -8.82,8.82 -4.871,0 -8.819,-3.949 -8.819,-8.82 0,-4.871 3.948,-8.82 8.819,-8.82 C -3.949,-8.82 0,-4.871 0,0"
             style="fill:#fa384f;fill-opacity:1;fill-rule:nonzero;stroke:none"
             id="path2934"
             inkscape:connector-curvature="0" />
        </g>
        <g
           id="g2936"
           transform="translate(909.0359,511.7677)">
          <path
             d="m 0,0 c 0,-4.871 3.948,-8.82 8.82,-8.82 4.871,0 8.819,3.949 8.819,8.82 0,4.871 -3.948,8.82 -8.819,8.82 C 3.948,8.82 0,4.871 0,0"
             style="fill:#031f5c;fill-opacity:1;fill-rule:nonzero;stroke:none"
             id="path2938"
             inkscape:connector-curvature="0" />
        </g>
        <g
           id="g2940"
           transform="translate(935.4949,502.948)">
          <path
             d="m 0,0 v 0 c -4.871,0 -8.82,3.949 -8.82,8.82 0,4.871 3.949,8.819 8.82,8.819 H 35.525 V 0 Z"
             style="fill:#fcc7d6;fill-opacity:1;fill-rule:nonzero;stroke:none"
             id="path2942"
             inkscape:connector-curvature="0" />
        </g>
        <g
           id="g2944"
           transform="translate(979.5935,511.7677)">
          <path
             d="m 0,0 c 0,4.871 -3.949,8.82 -8.82,8.82 -4.871,0 -8.82,-3.949 -8.82,-8.82 0,-4.871 3.949,-8.82 8.82,-8.82 C -3.949,-8.82 0,-4.871 0,0"
             style="fill:#fa384f;fill-opacity:1;fill-rule:nonzero;stroke:none"
             id="path2946"
             inkscape:connector-curvature="0" />
        </g>
        <g
           id="g2948"
           transform="translate(935.4949,485.3086)">
          <path
             d="m 0,0 v 0 c -4.871,0 -8.82,3.949 -8.82,8.82 0,4.871 3.949,8.819 8.82,8.819 H 35.279 V 0 Z"
             style="fill:#fa384f;fill-opacity:1;fill-rule:nonzero;stroke:none"
             id="path2950"
             inkscape:connector-curvature="0" />
        </g>
        <g
           id="g2952"
           transform="translate(979.5935,494.1283)">
          <path
             d="m 0,0 c 0,4.871 -3.949,8.82 -8.82,8.82 -4.871,0 -8.82,-3.949 -8.82,-8.82 0,-4.871 3.949,-8.82 8.82,-8.82 C -3.949,-8.82 0,-4.871 0,0"
             style="fill:#031f5c;fill-opacity:1;fill-rule:nonzero;stroke:none"
             id="path2954"
             inkscape:connector-curvature="0" />
        </g>
        <g
           id="g2956"
           transform="translate(997.2329,494.1283)">
          <path
             d="m 0,0 v 0 c 0,-4.871 3.948,-8.82 8.82,-8.82 4.87,0 8.819,3.949 8.819,8.82 V 17.639 H 0 Z"
             style="fill:#fcc7d6;fill-opacity:1;fill-rule:nonzero;stroke:none"
             id="path2958"
             inkscape:connector-curvature="0" />
        </g>
        <g
           id="g2960"
           transform="translate(1006.0525,520.5874)">
          <path
             d="m 0,0 c 4.871,0 8.82,-3.949 8.82,-8.82 0,-4.871 -3.949,-8.819 -8.82,-8.819 -4.871,0 -8.82,3.948 -8.82,8.819 C -8.82,-3.949 -4.871,0 0,0"
             style="fill:#fa384f;fill-opacity:1;fill-rule:nonzero;stroke:none"
             id="path2962"
             inkscape:connector-curvature="0" />
        </g>
        <g
           id="g2964"
           transform="translate(979.5935,511.7678)">
          <path
             d="m 0,0 v 0 c 0,4.871 3.949,8.82 8.82,8.82 4.871,0 8.819,-3.949 8.819,-8.82 V -17.639 H 0 Z"
             style="fill:#031f5c;fill-opacity:1;fill-rule:nonzero;stroke:none"
             id="path2966"
             inkscape:connector-curvature="0" />
        </g>
        <g
           id="g2968"
           transform="translate(988.4131,485.3086)">
          <path
             d="m 0,0 c 4.871,0 8.82,3.949 8.82,8.82 0,4.871 -3.949,8.819 -8.82,8.819 -4.871,0 -8.82,-3.948 -8.82,-8.819 C -8.82,3.949 -4.871,0 0,0"
             style="fill:#fa384f;fill-opacity:1;fill-rule:nonzero;stroke:none"
             id="path2970"
             inkscape:connector-curvature="0" />
        </g>
        <g
           id="g2972"
           transform="translate(935.4949,485.3085)">
          <path
             d="m 0,0 v 0 c -4.871,0 -8.82,-3.949 -8.82,-8.82 0,-4.871 3.949,-8.819 8.82,-8.819 H 70.907 V 0 Z"
             style="fill:#031f5c;fill-opacity:1;fill-rule:nonzero;stroke:none"
             id="path2974"
             inkscape:connector-curvature="0" />
        </g>
        <g
           id="g2976"
           transform="translate(1014.8721,476.4888)">
          <path
             d="m 0,0 c 0,-4.871 -3.949,-8.82 -8.82,-8.82 -4.871,0 -8.819,3.949 -8.819,8.82 0,4.871 3.948,8.82 8.819,8.82 C -3.949,8.82 0,4.871 0,0"
             style="fill:#fa384f;fill-opacity:1;fill-rule:nonzero;stroke:none"
             id="path2978"
             inkscape:connector-curvature="0" />
        </g>
        <g
           id="g2980"
           transform="translate(953.1345,467.6692)">
          <path
             d="m 0,0 v 0 c 4.871,0 8.819,-3.949 8.819,-8.82 0,-4.871 -3.948,-8.819 -8.819,-8.819 H -17.639 V 0 Z"
             style="fill:#fa384f;fill-opacity:1;fill-rule:nonzero;stroke:none"
             id="path2982"
             inkscape:connector-curvature="0" />
        </g>
        <g
           id="g2984"
           transform="translate(926.675,458.8495)">
          <path
             d="m 0,0 c 0,-4.871 3.949,-8.82 8.82,-8.82 4.871,0 8.82,3.949 8.82,8.82 0,4.871 -3.949,8.82 -8.82,8.82 C 3.949,8.82 0,4.871 0,0"
             style="fill:#031f5c;fill-opacity:1;fill-rule:nonzero;stroke:none"
             id="path2986"
             inkscape:connector-curvature="0" />
        </g>
        <g
           id="g2988"
           transform="translate(997.2329,458.8495)">
          <path
             d="m 0,0 v 0 c 0,4.871 -3.949,8.82 -8.82,8.82 -4.871,0 -8.819,-3.949 -8.819,-8.82 V -17.639 H 0 Z"
             style="fill:#fa384f;fill-opacity:1;fill-rule:nonzero;stroke:none"
             id="path2990"
             inkscape:connector-curvature="0" />
        </g>
        <g
           id="g2992"
           transform="translate(988.4131,432.3903)">
          <path
             d="m 0,0 c -4.871,0 -8.82,3.949 -8.82,8.82 0,4.871 3.949,8.819 8.82,8.819 4.871,0 8.82,-3.948 8.82,-8.819 C 8.82,3.949 4.871,0 0,0"
             style="fill:#fcc7d6;fill-opacity:1;fill-rule:nonzero;stroke:none"
             id="path2994"
             inkscape:connector-curvature="0" />
        </g>
        <g
           id="g2996"
           transform="translate(1014.8721,441.21)">
          <path
             d="m 0,0 c 0,-4.871 -3.949,-8.82 -8.82,-8.82 -4.871,0 -8.819,3.949 -8.819,8.82 0,4.871 3.948,8.82 8.819,8.82 C -3.949,8.82 0,4.871 0,0"
             style="fill:#031f5c;fill-opacity:1;fill-rule:nonzero;stroke:none"
             id="path2998"
             inkscape:connector-curvature="0" />
        </g>
        <g
           id="g3000"
           transform="translate(997.2329,458.8494)">
          <path
             d="m 0,0 c 0,-4.871 3.948,-8.82 8.82,-8.82 4.87,0 8.819,3.949 8.819,8.82 0,4.871 -3.949,8.82 -8.819,8.82 C 3.948,8.82 0,4.871 0,0"
             style="fill:#fcc7d6;fill-opacity:1;fill-rule:nonzero;stroke:none"
             id="path3002"
             inkscape:connector-curvature="0" />
        </g>
        <g
           id="g3004"
           transform="translate(899.8472,538.2268)">
          <path
             d="m 0,0 v 0 c 4.871,0 8.819,3.949 8.819,8.82 0,4.871 -3.948,8.819 -8.819,8.819 H -17.64 V 0 Z"
             style="fill:#fa384f;fill-opacity:1;fill-rule:nonzero;stroke:none"
             id="path3006"
             inkscape:connector-curvature="0" />
        </g>
        <g
           id="g3008"
           transform="translate(873.3877,547.0464)">
          <path
             d="m 0,0 c 0,4.871 3.949,8.82 8.82,8.82 4.871,0 8.82,-3.949 8.82,-8.82 0,-4.871 -3.949,-8.82 -8.82,-8.82 C 3.949,-8.82 0,-4.871 0,0"
             style="fill:#031f5c;fill-opacity:1;fill-rule:nonzero;stroke:none"
             id="path3010"
             inkscape:connector-curvature="0" />
        </g>
        <g
           id="g3012"
           transform="translate(899.8469,520.5873)">
          <path
             d="m 0,0 v 0 c 4.871,0 8.82,3.949 8.82,8.82 0,4.871 -3.949,8.819 -8.82,8.819 H -17.639 V 0 Z"
             style="fill:#fcc7d6;fill-opacity:1;fill-rule:nonzero;stroke:none"
             id="path3014"
             inkscape:connector-curvature="0" />
        </g>
        <g
           id="g3016"
           transform="translate(873.3877,529.407)">
          <path
             d="m 0,0 c 0,4.871 3.949,8.82 8.82,8.82 4.871,0 8.82,-3.949 8.82,-8.82 0,-4.871 -3.949,-8.82 -8.82,-8.82 C 3.949,-8.82 0,-4.871 0,0"
             style="fill:#fa384f;fill-opacity:1;fill-rule:nonzero;stroke:none"
             id="path3018"
             inkscape:connector-curvature="0" />
        </g>
        <g
           id="g3020"
           transform="translate(1058.9707,414.7509)">
          <path
             d="m 0,0 v 0 c 4.871,0 8.82,3.949 8.82,8.82 0,4.871 -3.949,8.819 -8.82,8.819 H -35.525 V 0 Z"
             style="fill:#031f5c;fill-opacity:1;fill-rule:nonzero;stroke:none"
             id="path3022"
             inkscape:connector-curvature="0" />
        </g>
        <g
           id="g3024"
           transform="translate(1014.8721,423.5707)">
          <path
             d="m 0,0 c 0,4.871 3.949,8.82 8.82,8.82 4.871,0 8.82,-3.949 8.82,-8.82 0,-4.871 -3.949,-8.82 -8.82,-8.82 C 3.949,-8.82 0,-4.871 0,0"
             style="fill:#fcc7d6;fill-opacity:1;fill-rule:nonzero;stroke:none"
             id="path3026"
             inkscape:connector-curvature="0" />
        </g>
        <g
           id="g3028"
           transform="translate(1164.9304,450.0298)">
          <path
             d="m 0,0 c -4.871,0 -8.82,3.949 -8.82,8.82 0,4.871 3.949,8.819 8.82,8.819 4.871,0 8.82,-3.948 8.82,-8.819 C 8.82,3.949 4.871,0 0,0"
             style="fill:#fcc7d6;fill-opacity:1;fill-rule:nonzero;stroke:none"
             id="path3030"
             inkscape:connector-curvature="0" />
        </g>
        <g
           id="g3032"
           transform="translate(1103.1921,458.8495)">
          <path
             d="m 0,0 v 0 c 0,4.871 -3.949,8.82 -8.82,8.82 -4.871,0 -8.819,-3.949 -8.819,-8.82 V -17.639 H 0 Z"
             style="fill:#031f5c;fill-opacity:1;fill-rule:nonzero;stroke:none"
             id="path3034"
             inkscape:connector-curvature="0" />
        </g>
        <g
           id="g3036"
           transform="translate(1094.3726,432.3904)">
          <path
             d="m 0,0 c -4.871,0 -8.82,3.949 -8.82,8.82 0,4.871 3.949,8.819 8.82,8.819 4.871,0 8.82,-3.948 8.82,-8.819 C 8.82,3.949 4.871,0 0,0"
             style="fill:#fcc7d6;fill-opacity:1;fill-rule:nonzero;stroke:none"
             id="path3038"
             inkscape:connector-curvature="0" />
        </g>
        <g
           id="g3040"
           transform="translate(1120.8318,458.8495)">
          <path
             d="m 0,0 v 0 c 0,4.871 -3.949,8.82 -8.82,8.82 -4.871,0 -8.82,-3.949 -8.82,-8.82 V -17.639 H 0 Z"
             style="fill:#fcc7d6;fill-opacity:1;fill-rule:nonzero;stroke:none"
             id="path3042"
             inkscape:connector-curvature="0" />
        </g>
        <g
           id="g3044"
           transform="translate(1112.012,432.3903)">
          <path
             d="m 0,0 c -4.871,0 -8.82,3.949 -8.82,8.82 0,4.871 3.949,8.819 8.82,8.819 4.871,0 8.82,-3.948 8.82,-8.819 C 8.82,3.949 4.871,0 0,0"
             style="fill:#fa384f;fill-opacity:1;fill-rule:nonzero;stroke:none"
             id="path3046"
             inkscape:connector-curvature="0" />
        </g>
        <g
           id="g3048"
           transform="translate(1138.4712,441.4562)">
          <path
             d="m 0,0 v 0 c 0,-4.871 3.948,-8.82 8.82,-8.82 4.87,0 8.819,3.949 8.819,8.82 V 17.639 H 0 Z"
             style="fill:#fcc7d6;fill-opacity:1;fill-rule:nonzero;stroke:none"
             id="path3050"
             inkscape:connector-curvature="0" />
        </g>
        <g
           id="g3052"
           transform="translate(1147.2908,467.9153)">
          <path
             d="m 0,0 c 4.871,0 8.82,-3.949 8.82,-8.82 0,-4.871 -3.949,-8.819 -8.82,-8.819 -4.871,0 -8.82,3.948 -8.82,8.819 C -8.82,-3.949 -4.871,0 0,0"
             style="fill:#fa384f;fill-opacity:1;fill-rule:nonzero;stroke:none"
             id="path3054"
             inkscape:connector-curvature="0" />
        </g>
        <g
           id="g3056"
           transform="translate(1076.7332,414.7509)">
          <path
             d="m 0,0 v 0 c -4.871,0 -8.82,3.949 -8.82,8.82 0,4.871 3.949,8.819 8.82,8.819 H 70.907 V 0 Z"
             style="fill:#031f5c;fill-opacity:1;fill-rule:nonzero;stroke:none"
             id="path3058"
             inkscape:connector-curvature="0" />
        </g>
        <g
           id="g3060"
           transform="translate(1156.1104,423.5707)">
          <path
             d="m 0,0 c 0,4.871 -3.948,8.82 -8.82,8.82 -4.871,0 -8.819,-3.949 -8.819,-8.82 0,-4.871 3.948,-8.82 8.819,-8.82 C -3.948,-8.82 0,-4.871 0,0"
             style="fill:#fa384f;fill-opacity:1;fill-rule:nonzero;stroke:none"
             id="path3062"
             inkscape:connector-curvature="0" />
        </g>
        <g
           id="g3064"
           transform="translate(837.7788,600.2108)">
          <path
             d="m 0,0 v 0 c 0,-4.871 3.949,-8.82 8.82,-8.82 4.871,0 8.819,3.949 8.819,8.82 V 35.525 H 0 Z"
             style="fill:#031f5c;fill-opacity:1;fill-rule:nonzero;stroke:none"
             id="path3066"
             inkscape:connector-curvature="0" />
        </g>
        <g
           id="g3068"
           transform="translate(846.5986,644.3093)">
          <path
             d="m 0,0 c 4.871,0 8.82,-3.949 8.82,-8.82 0,-4.871 -3.949,-8.819 -8.82,-8.819 -4.871,0 -8.82,3.948 -8.82,8.819 C -8.82,-3.949 -4.871,0 0,0"
             style="fill:#fcc7d6;fill-opacity:1;fill-rule:nonzero;stroke:none"
             id="path3070"
             inkscape:connector-curvature="0" />
        </g>
        <g
           id="g3072"
           transform="translate(811.3196,644.5555)">
          <path
             d="m 0,0 v 0 c -4.871,0 -8.82,-3.949 -8.82,-8.82 0,-4.871 3.949,-8.819 8.82,-8.819 H 17.639 V 0 Z"
             style="fill:#031f5c;fill-opacity:1;fill-rule:nonzero;stroke:none"
             id="path3074"
             inkscape:connector-curvature="0" />
        </g>
        <g
           id="g3076"
           transform="translate(837.7791,635.7359)">
          <path
             d="m 0,0 c 0,-4.871 -3.949,-8.82 -8.82,-8.82 -4.871,0 -8.82,3.949 -8.82,8.82 0,4.871 3.949,8.82 8.82,8.82 C -3.949,8.82 0,4.871 0,0"
             style="fill:#fa384f;fill-opacity:1;fill-rule:nonzero;stroke:none"
             id="path3078"
             inkscape:connector-curvature="0" />
        </g>
        <g
           id="g3080"
           transform="translate(820.1394,617.8503)">
          <path
             d="m 0,0 v 0 c 0,4.871 -3.949,8.82 -8.82,8.82 -4.871,0 -8.819,-3.949 -8.819,-8.82 V -17.639 H 0 Z"
             style="fill:#fa384f;fill-opacity:1;fill-rule:nonzero;stroke:none"
             id="path3082"
             inkscape:connector-curvature="0" />
        </g>
        <g
           id="g3084"
           transform="translate(811.3196,591.3911)">
          <path
             d="m 0,0 c -4.871,0 -8.82,3.949 -8.82,8.82 0,4.871 3.949,8.819 8.82,8.819 4.871,0 8.82,-3.948 8.82,-8.819 C 8.82,3.949 4.871,0 0,0"
             style="fill:#031f5c;fill-opacity:1;fill-rule:nonzero;stroke:none"
             id="path3086"
             inkscape:connector-curvature="0" />
        </g>
        <g
           id="g3088"
           transform="translate(837.7788,617.8503)">
          <path
             d="m 0,0 v 0 c 0,4.871 -3.949,8.82 -8.82,8.82 -4.871,0 -8.819,-3.949 -8.819,-8.82 V -17.639 H 0 Z"
             style="fill:#fcc7d6;fill-opacity:1;fill-rule:nonzero;stroke:none"
             id="path3090"
             inkscape:connector-curvature="0" />
        </g>
        <g
           id="g3092"
           transform="translate(828.959,591.3911)">
          <path
             d="m 0,0 c -4.871,0 -8.82,3.949 -8.82,8.82 0,4.871 3.949,8.819 8.82,8.819 4.871,0 8.82,-3.948 8.82,-8.819 C 8.82,3.949 4.871,0 0,0"
             style="fill:#fa384f;fill-opacity:1;fill-rule:nonzero;stroke:none"
             id="path3094"
             inkscape:connector-curvature="0" />
        </g>
        <g
           id="g3096"
           transform="translate(873.0576,582.5714)">
          <path
             d="m 0,0 c 0,4.871 -3.949,8.82 -8.82,8.82 -4.871,0 -8.819,-3.949 -8.819,-8.82 0,-4.871 3.948,-8.82 8.819,-8.82 C -3.949,-8.82 0,-4.871 0,0"
             style="fill:#fa384f;fill-opacity:1;fill-rule:nonzero;stroke:none"
             id="path3098"
             inkscape:connector-curvature="0" />
        </g>
        <g
           id="g3100"
           transform="translate(899.5168,591.3911)">
          <path
             d="m 0,0 v 0 c 4.871,0 8.82,-3.949 8.82,-8.82 0,-4.871 -3.949,-8.819 -8.82,-8.819 H -17.639 V 0 Z"
             style="fill:#031f5c;fill-opacity:1;fill-rule:nonzero;stroke:none"
             id="path3102"
             inkscape:connector-curvature="0" />
        </g>
        <g
           id="g3104"
           transform="translate(873.0576,582.5714)">
          <path
             d="m 0,0 c 0,-4.871 3.949,-8.82 8.82,-8.82 4.871,0 8.819,3.949 8.819,8.82 0,4.871 -3.948,8.82 -8.819,8.82 C 3.949,8.82 0,4.871 0,0"
             style="fill:#fa384f;fill-opacity:1;fill-rule:nonzero;stroke:none"
             id="path3106"
             inkscape:connector-curvature="0" />
        </g>
        <g
           id="g3108"
           transform="translate(1032.5115,441.0869)">
          <path
             d="m 0,0 v 0 c 0,-4.871 -3.948,-8.82 -8.82,-8.82 -4.87,0 -8.819,3.949 -8.819,8.82 V 70.907 H 0 Z"
             style="fill:#fa384f;fill-opacity:1;fill-rule:nonzero;stroke:none"
             id="path3110"
             inkscape:connector-curvature="0" />
        </g>
        <g
           id="g3112"
           transform="translate(1041.3313,485.4316)">
          <path
             d="m 0,0 v 0 c -4.871,0 -8.82,-3.949 -8.82,-8.82 0,-4.871 3.949,-8.819 8.82,-8.819 H 17.639 V 0 Z"
             style="fill:#031f5c;fill-opacity:1;fill-rule:nonzero;stroke:none"
             id="path3114"
             inkscape:connector-curvature="0" />
        </g>
        <g
           id="g3116"
           transform="translate(1067.7905,476.6119)">
          <path
             d="m 0,0 c 0,-4.871 -3.949,-8.82 -8.82,-8.82 -4.871,0 -8.82,3.949 -8.82,8.82 0,4.871 3.949,8.82 8.82,8.82 C -3.949,8.82 0,4.871 0,0"
             style="fill:#fa384f;fill-opacity:1;fill-rule:nonzero;stroke:none"
             id="path3118"
             inkscape:connector-curvature="0" />
        </g>
        <g
           id="g3120"
           transform="translate(1023.6921,503.071)">
          <path
             d="m 0,0 c -4.871,0 -8.82,3.949 -8.82,8.82 0,4.871 3.949,8.819 8.82,8.819 4.871,0 8.82,-3.948 8.82,-8.819 C 8.82,3.949 4.871,0 0,0"
             style="fill:#031f5c;fill-opacity:1;fill-rule:nonzero;stroke:none"
             id="path3122"
             inkscape:connector-curvature="0" />
        </g>
        <g
           id="g3124"
           transform="translate(1050.1509,458.7264)">
          <path
             d="m 0,0 v 0 c 0,4.871 -3.949,8.82 -8.82,8.82 -4.871,0 -8.819,-3.949 -8.819,-8.82 V -17.64 H 0 Z"
             style="fill:#fa384f;fill-opacity:1;fill-rule:nonzero;stroke:none"
             id="path3126"
             inkscape:connector-curvature="0" />
        </g>
        <g
           id="g3128"
           transform="translate(1041.3313,432.2672)">
          <path
             d="m 0,0 c -4.871,0 -8.82,3.949 -8.82,8.82 0,4.871 3.949,8.819 8.82,8.819 4.871,0 8.82,-3.948 8.82,-8.819 C 8.82,3.949 4.871,0 0,0"
             style="fill:#031f5c;fill-opacity:1;fill-rule:nonzero;stroke:none"
             id="path3130"
             inkscape:connector-curvature="0" />
        </g>
        <g
           id="g3132"
           transform="translate(1067.7905,458.8495)">
          <path
             d="m 0,0 v 0 c 0,4.871 -3.949,8.82 -8.82,8.82 -4.871,0 -8.82,-3.949 -8.82,-8.82 V -17.639 H 0 Z"
             style="fill:#fcc7d6;fill-opacity:1;fill-rule:nonzero;stroke:none"
             id="path3134"
             inkscape:connector-curvature="0" />
        </g>
        <g
           id="g3136"
           transform="translate(1058.9707,432.3904)">
          <path
             d="m 0,0 c -4.871,0 -8.82,3.949 -8.82,8.82 0,4.871 3.949,8.819 8.82,8.819 4.871,0 8.82,-3.948 8.82,-8.819 C 8.82,3.949 4.871,0 0,0"
             style="fill:#fa384f;fill-opacity:1;fill-rule:nonzero;stroke:none"
             id="path3138"
             inkscape:connector-curvature="0" />
        </g>
        <g
           id="g3140"
           transform="translate(1032.5117,494.2513)">
          <path
             d="m 0,0 v 0 c 0,-4.871 3.949,-8.82 8.82,-8.82 4.871,0 8.819,3.949 8.819,8.82 V 17.639 H 0 Z"
             style="fill:#fa384f;fill-opacity:1;fill-rule:nonzero;stroke:none"
             id="path3142"
             inkscape:connector-curvature="0" />
        </g>
        <g
           id="g3144"
           transform="translate(1041.3313,520.7104)">
          <path
             d="m 0,0 c 4.871,0 8.82,-3.949 8.82,-8.82 0,-4.871 -3.949,-8.819 -8.82,-8.819 -4.871,0 -8.82,3.948 -8.82,8.819 C -8.82,-3.949 -4.871,0 0,0"
             style="fill:#031f5c;fill-opacity:1;fill-rule:nonzero;stroke:none"
             id="path3146"
             inkscape:connector-curvature="0" />
        </g>
      </g>
    </g>
  </g>
</svg>
